[2016-02-17 10:13:28] request.INFO: Matched route "grups". {"route_parameters":{"id":-1,"_controller":"AppBundle\\Controller\\GrupController::showGrups","_route":"grups"},"request_uri":"http://projectem07uf3-sergi111.c9users.io/web/grups"} []
[2016-02-17 10:13:28] request.CRITICAL: Uncaught PHP Exception Symfony\Component\Debug\Exception\ContextErrorException: "Catchable Fatal Error: Object of class DateTime could not be converted to string" at /home/ubuntu/workspace/src/AppBundle/Controller/GrupController.php line 46 {"exception":"[object] (Symfony\\Component\\Debug\\Exception\\ContextErrorException(code: 0): Catchable Fatal Error: Object of class DateTime could not be converted to string at /home/ubuntu/workspace/src/AppBundle/Controller/GrupController.php:46)"} []
[2016-02-17 10:13:34] request.INFO: Matched route "grups". {"route_parameters":{"id":-1,"_controller":"AppBundle\\Controller\\GrupController::showGrups","_route":"grups"},"request_uri":"http://projectem07uf3-sergi111.c9users.io/web/grups"} []
[2016-02-17 10:13:34] request.CRITICAL: Uncaught PHP Exception Symfony\Component\Debug\Exception\ContextErrorException: "Catchable Fatal Error: Object of class DateTime could not be converted to string" at /home/ubuntu/workspace/src/AppBundle/Controller/GrupController.php line 46 {"exception":"[object] (Symfony\\Component\\Debug\\Exception\\ContextErrorException(code: 0): Catchable Fatal Error: Object of class DateTime could not be converted to string at /home/ubuntu/workspace/src/AppBundle/Controller/GrupController.php:46)"} []
[2016-02-17 10:13:49] request.INFO: Matched route "grups". {"route_parameters":{"id":-1,"_controller":"AppBundle\\Controller\\GrupController::showGrups","_route":"grups"},"request_uri":"http://projectem07uf3-sergi111.c9users.io/web/grups"} []
[2016-02-17 10:13:49] request.CRITICAL: Uncaught PHP Exception Symfony\Component\Debug\Exception\ContextErrorException: "Catchable Fatal Error: Object of class DateTime could not be converted to string" at /home/ubuntu/workspace/src/AppBundle/Controller/GrupController.php line 46 {"exception":"[object] (Symfony\\Component\\Debug\\Exception\\ContextErrorException(code: 0): Catchable Fatal Error: Object of class DateTime could not be converted to string at /home/ubuntu/workspace/src/AppBundle/Controller/GrupController.php:46)"} []
[2016-02-24 07:42:00] request.ERROR: Uncaught PHP Exception Symfony\Component\HttpKernel\Exception\NotFoundHttpException: "No route found for "GET /selectGrup" (from "https://projectem07uf3-sergi111.c9users.io/web/app_dev.php/selectGrup")" at /home/ubuntu/workspace/app/cache/prod/classes.php line 2599 {"exception":"[object] (Symfony\\Component\\HttpKernel\\Exception\\NotFoundHttpException(code: 0): No route found for \"GET /selectGrup\" (from \"https://projectem07uf3-sergi111.c9users.io/web/app_dev.php/selectGrup\") at /home/ubuntu/workspace/app/cache/prod/classes.php:2599, Symfony\\Component\\Routing\\Exception\\ResourceNotFoundException(code: 0):  at /home/ubuntu/workspace/app/cache/prod/appProdUrlMatcher.php:45)"} []
[2016-03-11 08:46:47] request.ERROR: Uncaught PHP Exception Symfony\Component\HttpKernel\Exception\NotFoundHttpException: "No route found for "GET /theme.css" (from "https://projectem07uf3-sergi111.c9users.io/web/app_dev.php/")" at /home/ubuntu/workspace/app/cache/prod/classes.php line 2599 {"exception":"[object] (Symfony\\Component\\HttpKernel\\Exception\\NotFoundHttpException(code: 0): No route found for \"GET /theme.css\" (from \"https://projectem07uf3-sergi111.c9users.io/web/app_dev.php/\") at /home/ubuntu/workspace/app/cache/prod/classes.php:2599, Symfony\\Component\\Routing\\Exception\\ResourceNotFoundException(code: 0):  at /home/ubuntu/workspace/app/cache/prod/appProdUrlMatcher.php:45)"} []
[2016-03-11 08:47:02] request.ERROR: Uncaught PHP Exception Symfony\Component\HttpKernel\Exception\NotFoundHttpException: "No route found for "GET /theme.css" (from "https://projectem07uf3-sergi111.c9users.io/web/app_dev.php/")" at /home/ubuntu/workspace/app/cache/prod/classes.php line 2599 {"exception":"[object] (Symfony\\Component\\HttpKernel\\Exception\\NotFoundHttpException(code: 0): No route found for \"GET /theme.css\" (from \"https://projectem07uf3-sergi111.c9users.io/web/app_dev.php/\") at /home/ubuntu/workspace/app/cache/prod/classes.php:2599, Symfony\\Component\\Routing\\Exception\\ResourceNotFoundException(code: 0):  at /home/ubuntu/workspace/app/cache/prod/appProdUrlMatcher.php:45)"} []
[2016-03-11 08:48:01] request.ERROR: Uncaught PHP Exception Symfony\Component\HttpKernel\Exception\NotFoundHttpException: "No route found for "GET /theme.css" (from "https://projectem07uf3-sergi111.c9users.io/web/app_dev.php/selectAllGrups")" at /home/ubuntu/workspace/app/cache/prod/classes.php line 2599 {"exception":"[object] (Symfony\\Component\\HttpKernel\\Exception\\NotFoundHttpException(code: 0): No route found for \"GET /theme.css\" (from \"https://projectem07uf3-sergi111.c9users.io/web/app_dev.php/selectAllGrups\") at /home/ubuntu/workspace/app/cache/prod/classes.php:2599, Symfony\\Component\\Routing\\Exception\\ResourceNotFoundException(code: 0):  at /home/ubuntu/workspace/app/cache/prod/appProdUrlMatcher.php:45)"} []
[2016-03-11 08:56:30] request.ERROR: Uncaught PHP Exception Symfony\Component\HttpKernel\Exception\NotFoundHttpException: "No route found for "GET /css/theme.css" (from "https://projectem07uf3-sergi111.c9users.io/web/app_dev.php/selectAllEspais")" at /home/ubuntu/workspace/app/cache/prod/classes.php line 2599 {"exception":"[object] (Symfony\\Component\\HttpKernel\\Exception\\NotFoundHttpException(code: 0): No route found for \"GET /css/theme.css\" (from \"https://projectem07uf3-sergi111.c9users.io/web/app_dev.php/selectAllEspais\") at /home/ubuntu/workspace/app/cache/prod/classes.php:2599, Symfony\\Component\\Routing\\Exception\\ResourceNotFoundException(code: 0):  at /home/ubuntu/workspace/app/cache/prod/appProdUrlMatcher.php:45)"} []
[2016-03-11 08:59:15] request.ERROR: Uncaught PHP Exception Symfony\Component\HttpKernel\Exception\NotFoundHttpException: "No route found for "GET /css/theme.css" (from "https://projectem07uf3-sergi111.c9users.io/web/app_dev.php/selectAllEspais")" at /home/ubuntu/workspace/app/cache/prod/classes.php line 2599 {"exception":"[object] (Symfony\\Component\\HttpKernel\\Exception\\NotFoundHttpException(code: 0): No route found for \"GET /css/theme.css\" (from \"https://projectem07uf3-sergi111.c9users.io/web/app_dev.php/selectAllEspais\") at /home/ubuntu/workspace/app/cache/prod/classes.php:2599, Symfony\\Component\\Routing\\Exception\\ResourceNotFoundException(code: 0):  at /home/ubuntu/workspace/app/cache/prod/appProdUrlMatcher.php:45)"} []
[2016-03-11 08:59:44] request.ERROR: Uncaught PHP Exception Symfony\Component\HttpKernel\Exception\NotFoundHttpException: "No route found for "GET /css/theme.css" (from "https://projectem07uf3-sergi111.c9users.io/web/app_dev.php/selectAllEspais")" at /home/ubuntu/workspace/app/cache/prod/classes.php line 2599 {"exception":"[object] (Symfony\\Component\\HttpKernel\\Exception\\NotFoundHttpException(code: 0): No route found for \"GET /css/theme.css\" (from \"https://projectem07uf3-sergi111.c9users.io/web/app_dev.php/selectAllEspais\") at /home/ubuntu/workspace/app/cache/prod/classes.php:2599, Symfony\\Component\\Routing\\Exception\\ResourceNotFoundException(code: 0):  at /home/ubuntu/workspace/app/cache/prod/appProdUrlMatcher.php:45)"} []
[2016-03-11 09:00:10] request.ERROR: Uncaught PHP Exception Symfony\Component\HttpKernel\Exception\NotFoundHttpException: "No route found for "GET /css/theme.css" (from "https://projectem07uf3-sergi111.c9users.io/web/app_dev.php/selectAllEspais")" at /home/ubuntu/workspace/app/cache/prod/classes.php line 2599 {"exception":"[object] (Symfony\\Component\\HttpKernel\\Exception\\NotFoundHttpException(code: 0): No route found for \"GET /css/theme.css\" (from \"https://projectem07uf3-sergi111.c9users.io/web/app_dev.php/selectAllEspais\") at /home/ubuntu/workspace/app/cache/prod/classes.php:2599, Symfony\\Component\\Routing\\Exception\\ResourceNotFoundException(code: 0):  at /home/ubuntu/workspace/app/cache/prod/appProdUrlMatcher.php:45)"} []
[2016-03-11 09:35:23] request.ERROR: Uncaught PHP Exception Symfony\Component\HttpKernel\Exception\NotFoundHttpException: "No route found for "GET /css/theme.css" (from "https://projectem07uf3-sergi111.c9users.io/web/app_dev.php/selectAllConcerts")" at /home/ubuntu/workspace/app/cache/prod/classes.php line 2599 {"exception":"[object] (Symfony\\Component\\HttpKernel\\Exception\\NotFoundHttpException(code: 0): No route found for \"GET /css/theme.css\" (from \"https://projectem07uf3-sergi111.c9users.io/web/app_dev.php/selectAllConcerts\") at /home/ubuntu/workspace/app/cache/prod/classes.php:2599, Symfony\\Component\\Routing\\Exception\\ResourceNotFoundException(code: 0):  at /home/ubuntu/workspace/app/cache/prod/appProdUrlMatcher.php:45)"} []
[2016-03-11 09:35:51] request.ERROR: Uncaught PHP Exception Symfony\Component\HttpKernel\Exception\NotFoundHttpException: "No route found for "GET /css/theme.css" (from "https://projectem07uf3-sergi111.c9users.io/web/app_dev.php/selectAllConcerts")" at /home/ubuntu/workspace/app/cache/prod/classes.php line 2599 {"exception":"[object] (Symfony\\Component\\HttpKernel\\Exception\\NotFoundHttpException(code: 0): No route found for \"GET /css/theme.css\" (from \"https://projectem07uf3-sergi111.c9users.io/web/app_dev.php/selectAllConcerts\") at /home/ubuntu/workspace/app/cache/prod/classes.php:2599, Symfony\\Component\\Routing\\Exception\\ResourceNotFoundException(code: 0):  at /home/ubuntu/workspace/app/cache/prod/appProdUrlMatcher.php:45)"} []
[2016-03-11 09:37:08] request.ERROR: Uncaught PHP Exception Symfony\Component\HttpKernel\Exception\NotFoundHttpException: "No route found for "GET /css/theme.css" (from "https://projectem07uf3-sergi111.c9users.io/web/app_dev.php/selectAllConcerts")" at /home/ubuntu/workspace/app/cache/prod/classes.php line 2599 {"exception":"[object] (Symfony\\Component\\HttpKernel\\Exception\\NotFoundHttpException(code: 0): No route found for \"GET /css/theme.css\" (from \"https://projectem07uf3-sergi111.c9users.io/web/app_dev.php/selectAllConcerts\") at /home/ubuntu/workspace/app/cache/prod/classes.php:2599, Symfony\\Component\\Routing\\Exception\\ResourceNotFoundException(code: 0):  at /home/ubuntu/workspace/app/cache/prod/appProdUrlMatcher.php:45)"} []
[2016-03-11 09:37:10] request.ERROR: Uncaught PHP Exception Symfony\Component\HttpKernel\Exception\NotFoundHttpException: "No route found for "GET /css/theme.css" (from "https://projectem07uf3-sergi111.c9users.io/web/app_dev.php/selectAllGrups")" at /home/ubuntu/workspace/app/cache/prod/classes.php line 2599 {"exception":"[object] (Symfony\\Component\\HttpKernel\\Exception\\NotFoundHttpException(code: 0): No route found for \"GET /css/theme.css\" (from \"https://projectem07uf3-sergi111.c9users.io/web/app_dev.php/selectAllGrups\") at /home/ubuntu/workspace/app/cache/prod/classes.php:2599, Symfony\\Component\\Routing\\Exception\\ResourceNotFoundException(code: 0):  at /home/ubuntu/workspace/app/cache/prod/appProdUrlMatcher.php:45)"} []
[2016-03-11 09:38:07] request.ERROR: Uncaught PHP Exception Symfony\Component\HttpKernel\Exception\NotFoundHttpException: "No route found for "GET /css/theme.css" (from "https://projectem07uf3-sergi111.c9users.io/web/app_dev.php/")" at /home/ubuntu/workspace/app/cache/prod/classes.php line 2599 {"exception":"[object] (Symfony\\Component\\HttpKernel\\Exception\\NotFoundHttpException(code: 0): No route found for \"GET /css/theme.css\" (from \"https://projectem07uf3-sergi111.c9users.io/web/app_dev.php/\") at /home/ubuntu/workspace/app/cache/prod/classes.php:2599, Symfony\\Component\\Routing\\Exception\\ResourceNotFoundException(code: 0):  at /home/ubuntu/workspace/app/cache/prod/appProdUrlMatcher.php:45)"} []
[2016-03-11 09:38:46] request.ERROR: Uncaught PHP Exception Symfony\Component\HttpKernel\Exception\NotFoundHttpException: "No route found for "GET /css/theme.css" (from "https://projectem07uf3-sergi111.c9users.io/web/app_dev.php/")" at /home/ubuntu/workspace/app/cache/prod/classes.php line 2599 {"exception":"[object] (Symfony\\Component\\HttpKernel\\Exception\\NotFoundHttpException(code: 0): No route found for \"GET /css/theme.css\" (from \"https://projectem07uf3-sergi111.c9users.io/web/app_dev.php/\") at /home/ubuntu/workspace/app/cache/prod/classes.php:2599, Symfony\\Component\\Routing\\Exception\\ResourceNotFoundException(code: 0):  at /home/ubuntu/workspace/app/cache/prod/appProdUrlMatcher.php:45)"} []
[2016-03-11 09:39:13] request.ERROR: Uncaught PHP Exception Symfony\Component\HttpKernel\Exception\NotFoundHttpException: "No route found for "GET /css/theme.css" (from "https://projectem07uf3-sergi111.c9users.io/web/app_dev.php/")" at /home/ubuntu/workspace/app/cache/prod/classes.php line 2599 {"exception":"[object] (Symfony\\Component\\HttpKernel\\Exception\\NotFoundHttpException(code: 0): No route found for \"GET /css/theme.css\" (from \"https://projectem07uf3-sergi111.c9users.io/web/app_dev.php/\") at /home/ubuntu/workspace/app/cache/prod/classes.php:2599, Symfony\\Component\\Routing\\Exception\\ResourceNotFoundException(code: 0):  at /home/ubuntu/workspace/app/cache/prod/appProdUrlMatcher.php:45)"} []
[2016-03-11 09:39:22] request.ERROR: Uncaught PHP Exception Symfony\Component\HttpKernel\Exception\NotFoundHttpException: "No route found for "GET /css/theme.css" (from "https://projectem07uf3-sergi111.c9users.io/web/app_dev.php/")" at /home/ubuntu/workspace/app/cache/prod/classes.php line 2599 {"exception":"[object] (Symfony\\Component\\HttpKernel\\Exception\\NotFoundHttpException(code: 0): No route found for \"GET /css/theme.css\" (from \"https://projectem07uf3-sergi111.c9users.io/web/app_dev.php/\") at /home/ubuntu/workspace/app/cache/prod/classes.php:2599, Symfony\\Component\\Routing\\Exception\\ResourceNotFoundException(code: 0):  at /home/ubuntu/workspace/app/cache/prod/appProdUrlMatcher.php:45)"} []
[2016-03-11 09:39:47] request.ERROR: Uncaught PHP Exception Symfony\Component\HttpKernel\Exception\NotFoundHttpException: "No route found for "GET /css/theme.css" (from "https://projectem07uf3-sergi111.c9users.io/web/app_dev.php/")" at /home/ubuntu/workspace/app/cache/prod/classes.php line 2599 {"exception":"[object] (Symfony\\Component\\HttpKernel\\Exception\\NotFoundHttpException(code: 0): No route found for \"GET /css/theme.css\" (from \"https://projectem07uf3-sergi111.c9users.io/web/app_dev.php/\") at /home/ubuntu/workspace/app/cache/prod/classes.php:2599, Symfony\\Component\\Routing\\Exception\\ResourceNotFoundException(code: 0):  at /home/ubuntu/workspace/app/cache/prod/appProdUrlMatcher.php:45)"} []
[2016-03-11 09:39:53] request.ERROR: Uncaught PHP Exception Symfony\Component\HttpKernel\Exception\NotFoundHttpException: "No route found for "GET /css/theme.css" (from "https://projectem07uf3-sergi111.c9users.io/web/app_dev.php/selectAllGrups")" at /home/ubuntu/workspace/app/cache/prod/classes.php line 2599 {"exception":"[object] (Symfony\\Component\\HttpKernel\\Exception\\NotFoundHttpException(code: 0): No route found for \"GET /css/theme.css\" (from \"https://projectem07uf3-sergi111.c9users.io/web/app_dev.php/selectAllGrups\") at /home/ubuntu/workspace/app/cache/prod/classes.php:2599, Symfony\\Component\\Routing\\Exception\\ResourceNotFoundException(code: 0):  at /home/ubuntu/workspace/app/cache/prod/appProdUrlMatcher.php:45)"} []
[2016-03-11 09:40:20] request.ERROR: Uncaught PHP Exception Symfony\Component\HttpKernel\Exception\NotFoundHttpException: "No route found for "GET /css/theme.css" (from "https://projectem07uf3-sergi111.c9users.io/web/app_dev.php/")" at /home/ubuntu/workspace/app/cache/prod/classes.php line 2599 {"exception":"[object] (Symfony\\Component\\HttpKernel\\Exception\\NotFoundHttpException(code: 0): No route found for \"GET /css/theme.css\" (from \"https://projectem07uf3-sergi111.c9users.io/web/app_dev.php/\") at /home/ubuntu/workspace/app/cache/prod/classes.php:2599, Symfony\\Component\\Routing\\Exception\\ResourceNotFoundException(code: 0):  at /home/ubuntu/workspace/app/cache/prod/appProdUrlMatcher.php:45)"} []
[2016-03-11 09:40:58] request.ERROR: Uncaught PHP Exception Symfony\Component\HttpKernel\Exception\NotFoundHttpException: "No route found for "GET /css/theme.css" (from "https://projectem07uf3-sergi111.c9users.io/web/app_dev.php/")" at /home/ubuntu/workspace/app/cache/prod/classes.php line 2599 {"exception":"[object] (Symfony\\Component\\HttpKernel\\Exception\\NotFoundHttpException(code: 0): No route found for \"GET /css/theme.css\" (from \"https://projectem07uf3-sergi111.c9users.io/web/app_dev.php/\") at /home/ubuntu/workspace/app/cache/prod/classes.php:2599, Symfony\\Component\\Routing\\Exception\\ResourceNotFoundException(code: 0):  at /home/ubuntu/workspace/app/cache/prod/appProdUrlMatcher.php:45)"} []
[2016-03-11 09:59:15] request.ERROR: Uncaught PHP Exception Symfony\Component\HttpKernel\Exception\NotFoundHttpException: "No route found for "GET /css/theme.css" (from "https://projectem07uf3-sergi111.c9users.io/web/app_dev.php/")" at /home/ubuntu/workspace/app/cache/prod/classes.php line 2599 {"exception":"[object] (Symfony\\Component\\HttpKernel\\Exception\\NotFoundHttpException(code: 0): No route found for \"GET /css/theme.css\" (from \"https://projectem07uf3-sergi111.c9users.io/web/app_dev.php/\") at /home/ubuntu/workspace/app/cache/prod/classes.php:2599, Symfony\\Component\\Routing\\Exception\\ResourceNotFoundException(code: 0):  at /home/ubuntu/workspace/app/cache/prod/appProdUrlMatcher.php:45)"} []
[2016-03-11 10:01:26] request.ERROR: Uncaught PHP Exception Symfony\Component\HttpKernel\Exception\NotFoundHttpException: "No route found for "GET /css/theme.css" (from "https://projectem07uf3-sergi111.c9users.io/web/app_dev.php/")" at /home/ubuntu/workspace/app/cache/prod/classes.php line 2599 {"exception":"[object] (Symfony\\Component\\HttpKernel\\Exception\\NotFoundHttpException(code: 0): No route found for \"GET /css/theme.css\" (from \"https://projectem07uf3-sergi111.c9users.io/web/app_dev.php/\") at /home/ubuntu/workspace/app/cache/prod/classes.php:2599, Symfony\\Component\\Routing\\Exception\\ResourceNotFoundException(code: 0):  at /home/ubuntu/workspace/app/cache/prod/appProdUrlMatcher.php:45)"} []
[2016-03-11 10:01:36] request.ERROR: Uncaught PHP Exception Symfony\Component\HttpKernel\Exception\NotFoundHttpException: "No route found for "GET /css/theme.css" (from "https://projectem07uf3-sergi111.c9users.io/web/app_dev.php/")" at /home/ubuntu/workspace/app/cache/prod/classes.php line 2599 {"exception":"[object] (Symfony\\Component\\HttpKernel\\Exception\\NotFoundHttpException(code: 0): No route found for \"GET /css/theme.css\" (from \"https://projectem07uf3-sergi111.c9users.io/web/app_dev.php/\") at /home/ubuntu/workspace/app/cache/prod/classes.php:2599, Symfony\\Component\\Routing\\Exception\\ResourceNotFoundException(code: 0):  at /home/ubuntu/workspace/app/cache/prod/appProdUrlMatcher.php:45)"} []
[2016-03-11 10:34:38] request.ERROR: Uncaught PHP Exception Symfony\Component\HttpKernel\Exception\NotFoundHttpException: "No route found for "GET /bundles/acmedemo/images/background.jpg" (from "https://projectem07uf3-sergi111.c9users.io/web/bundles/acmedemo/css/theme.css")" at /home/ubuntu/workspace/app/cache/prod/classes.php line 2599 {"exception":"[object] (Symfony\\Component\\HttpKernel\\Exception\\NotFoundHttpException(code: 0): No route found for \"GET /bundles/acmedemo/images/background.jpg\" (from \"https://projectem07uf3-sergi111.c9users.io/web/bundles/acmedemo/css/theme.css\") at /home/ubuntu/workspace/app/cache/prod/classes.php:2599, Symfony\\Component\\Routing\\Exception\\ResourceNotFoundException(code: 0):  at /home/ubuntu/workspace/app/cache/prod/appProdUrlMatcher.php:45)"} []
[2016-03-11 10:38:28] request.ERROR: Uncaught PHP Exception Symfony\Component\HttpKernel\Exception\NotFoundHttpException: "No route found for "GET /bundles/acmedemo/images/background.jpg" (from "https://projectem07uf3-sergi111.c9users.io/web/bundles/acmedemo/css/theme.css")" at /home/ubuntu/workspace/app/cache/prod/classes.php line 2599 {"exception":"[object] (Symfony\\Component\\HttpKernel\\Exception\\NotFoundHttpException(code: 0): No route found for \"GET /bundles/acmedemo/images/background.jpg\" (from \"https://projectem07uf3-sergi111.c9users.io/web/bundles/acmedemo/css/theme.css\") at /home/ubuntu/workspace/app/cache/prod/classes.php:2599, Symfony\\Component\\Routing\\Exception\\ResourceNotFoundException(code: 0):  at /home/ubuntu/workspace/app/cache/prod/appProdUrlMatcher.php:45)"} []
[2016-03-11 10:39:48] request.ERROR: Uncaught PHP Exception Symfony\Component\HttpKernel\Exception\NotFoundHttpException: "No route found for "GET /bundles/acmedemo/images/background.jpg" (from "https://projectem07uf3-sergi111.c9users.io/web/bundles/acmedemo/css/theme.css")" at /home/ubuntu/workspace/app/cache/prod/classes.php line 2599 {"exception":"[object] (Symfony\\Component\\HttpKernel\\Exception\\NotFoundHttpException(code: 0): No route found for \"GET /bundles/acmedemo/images/background.jpg\" (from \"https://projectem07uf3-sergi111.c9users.io/web/bundles/acmedemo/css/theme.css\") at /home/ubuntu/workspace/app/cache/prod/classes.php:2599, Symfony\\Component\\Routing\\Exception\\ResourceNotFoundException(code: 0):  at /home/ubuntu/workspace/app/cache/prod/appProdUrlMatcher.php:45)"} []
[2016-03-11 11:01:44] request.ERROR: Uncaught PHP Exception Symfony\Component\HttpKernel\Exception\NotFoundHttpException: "No route found for "GET /bundles/acmedemo/images/background.jpg" (from "https://projectem07uf3-sergi111.c9users.io/web/bundles/acmedemo/css/theme.css")" at /home/ubuntu/workspace/app/cache/prod/classes.php line 2599 {"exception":"[object] (Symfony\\Component\\HttpKernel\\Exception\\NotFoundHttpException(code: 0): No route found for \"GET /bundles/acmedemo/images/background.jpg\" (from \"https://projectem07uf3-sergi111.c9users.io/web/bundles/acmedemo/css/theme.css\") at /home/ubuntu/workspace/app/cache/prod/classes.php:2599, Symfony\\Component\\Routing\\Exception\\ResourceNotFoundException(code: 0):  at /home/ubuntu/workspace/app/cache/prod/appProdUrlMatcher.php:45)"} []
[2016-03-11 11:03:20] request.ERROR: Uncaught PHP Exception Symfony\Component\HttpKernel\Exception\NotFoundHttpException: "No route found for "GET /bundles/acmedemo/images/background.jpg" (from "https://projectem07uf3-sergi111.c9users.io/web/bundles/acmedemo/css/theme.css")" at /home/ubuntu/workspace/app/cache/prod/classes.php line 2599 {"exception":"[object] (Symfony\\Component\\HttpKernel\\Exception\\NotFoundHttpException(code: 0): No route found for \"GET /bundles/acmedemo/images/background.jpg\" (from \"https://projectem07uf3-sergi111.c9users.io/web/bundles/acmedemo/css/theme.css\") at /home/ubuntu/workspace/app/cache/prod/classes.php:2599, Symfony\\Component\\Routing\\Exception\\ResourceNotFoundException(code: 0):  at /home/ubuntu/workspace/app/cache/prod/appProdUrlMatcher.php:45)"} []
[2016-03-11 12:06:22] request.ERROR: Uncaught PHP Exception Symfony\Component\HttpKernel\Exception\NotFoundHttpException: "No route found for "GET /bundles/acmedemo/css/img/denim.png" (from "https://projectem07uf3-sergi111.c9users.io/web/bundles/acmedemo/css/theme.css")" at /home/ubuntu/workspace/app/cache/prod/classes.php line 2599 {"exception":"[object] (Symfony\\Component\\HttpKernel\\Exception\\NotFoundHttpException(code: 0): No route found for \"GET /bundles/acmedemo/css/img/denim.png\" (from \"https://projectem07uf3-sergi111.c9users.io/web/bundles/acmedemo/css/theme.css\") at /home/ubuntu/workspace/app/cache/prod/classes.php:2599, Symfony\\Component\\Routing\\Exception\\ResourceNotFoundException(code: 0):  at /home/ubuntu/workspace/app/cache/prod/appProdUrlMatcher.php:45)"} []
[2016-03-11 12:06:43] request.ERROR: Uncaught PHP Exception Symfony\Component\HttpKernel\Exception\NotFoundHttpException: "No route found for "GET /bundles/acmedemo/css/img/denim.png" (from "https://projectem07uf3-sergi111.c9users.io/web/bundles/acmedemo/css/theme.css")" at /home/ubuntu/workspace/app/cache/prod/classes.php line 2599 {"exception":"[object] (Symfony\\Component\\HttpKernel\\Exception\\NotFoundHttpException(code: 0): No route found for \"GET /bundles/acmedemo/css/img/denim.png\" (from \"https://projectem07uf3-sergi111.c9users.io/web/bundles/acmedemo/css/theme.css\") at /home/ubuntu/workspace/app/cache/prod/classes.php:2599, Symfony\\Component\\Routing\\Exception\\ResourceNotFoundException(code: 0):  at /home/ubuntu/workspace/app/cache/prod/appProdUrlMatcher.php:45)"} []
[2016-03-11 12:07:26] request.ERROR: Uncaught PHP Exception Symfony\Component\HttpKernel\Exception\NotFoundHttpException: "No route found for "GET /bundles/acmedemo/css/img/denim.png" (from "https://projectem07uf3-sergi111.c9users.io/web/bundles/acmedemo/css/theme.css")" at /home/ubuntu/workspace/app/cache/prod/classes.php line 2599 {"exception":"[object] (Symfony\\Component\\HttpKernel\\Exception\\NotFoundHttpException(code: 0): No route found for \"GET /bundles/acmedemo/css/img/denim.png\" (from \"https://projectem07uf3-sergi111.c9users.io/web/bundles/acmedemo/css/theme.css\") at /home/ubuntu/workspace/app/cache/prod/classes.php:2599, Symfony\\Component\\Routing\\Exception\\ResourceNotFoundException(code: 0):  at /home/ubuntu/workspace/app/cache/prod/appProdUrlMatcher.php:45)"} []
[2016-03-11 12:08:03] request.ERROR: Uncaught PHP Exception Symfony\Component\HttpKernel\Exception\NotFoundHttpException: "No route found for "GET /bundles/acmedemo/css/img/denim.png" (from "https://projectem07uf3-sergi111.c9users.io/web/bundles/acmedemo/css/theme.css")" at /home/ubuntu/workspace/app/cache/prod/classes.php line 2599 {"exception":"[object] (Symfony\\Component\\HttpKernel\\Exception\\NotFoundHttpException(code: 0): No route found for \"GET /bundles/acmedemo/css/img/denim.png\" (from \"https://projectem07uf3-sergi111.c9users.io/web/bundles/acmedemo/css/theme.css\") at /home/ubuntu/workspace/app/cache/prod/classes.php:2599, Symfony\\Component\\Routing\\Exception\\ResourceNotFoundException(code: 0):  at /home/ubuntu/workspace/app/cache/prod/appProdUrlMatcher.php:45)"} []
[2016-03-11 12:08:21] request.ERROR: Uncaught PHP Exception Symfony\Component\HttpKernel\Exception\NotFoundHttpException: "No route found for "GET /bundles/acmedemo/css/img/denim.png" (from "https://projectem07uf3-sergi111.c9users.io/web/bundles/acmedemo/css/theme.css")" at /home/ubuntu/workspace/app/cache/prod/classes.php line 2599 {"exception":"[object] (Symfony\\Component\\HttpKernel\\Exception\\NotFoundHttpException(code: 0): No route found for \"GET /bundles/acmedemo/css/img/denim.png\" (from \"https://projectem07uf3-sergi111.c9users.io/web/bundles/acmedemo/css/theme.css\") at /home/ubuntu/workspace/app/cache/prod/classes.php:2599, Symfony\\Component\\Routing\\Exception\\ResourceNotFoundException(code: 0):  at /home/ubuntu/workspace/app/cache/prod/appProdUrlMatcher.php:45)"} []
[2016-03-11 12:08:57] request.ERROR: Uncaught PHP Exception Symfony\Component\HttpKernel\Exception\NotFoundHttpException: "No route found for "GET /bundles/acmedemo/css/img/denim.png" (from "https://projectem07uf3-sergi111.c9users.io/web/bundles/acmedemo/css/theme.css")" at /home/ubuntu/workspace/app/cache/prod/classes.php line 2599 {"exception":"[object] (Symfony\\Component\\HttpKernel\\Exception\\NotFoundHttpException(code: 0): No route found for \"GET /bundles/acmedemo/css/img/denim.png\" (from \"https://projectem07uf3-sergi111.c9users.io/web/bundles/acmedemo/css/theme.css\") at /home/ubuntu/workspace/app/cache/prod/classes.php:2599, Symfony\\Component\\Routing\\Exception\\ResourceNotFoundException(code: 0):  at /home/ubuntu/workspace/app/cache/prod/appProdUrlMatcher.php:45)"} []
[2016-03-11 12:09:29] request.ERROR: Uncaught PHP Exception Symfony\Component\HttpKernel\Exception\NotFoundHttpException: "No route found for "GET /bundles/acmedemo/css/img/denim.png" (from "https://projectem07uf3-sergi111.c9users.io/web/bundles/acmedemo/css/theme.css")" at /home/ubuntu/workspace/app/cache/prod/classes.php line 2599 {"exception":"[object] (Symfony\\Component\\HttpKernel\\Exception\\NotFoundHttpException(code: 0): No route found for \"GET /bundles/acmedemo/css/img/denim.png\" (from \"https://projectem07uf3-sergi111.c9users.io/web/bundles/acmedemo/css/theme.css\") at /home/ubuntu/workspace/app/cache/prod/classes.php:2599, Symfony\\Component\\Routing\\Exception\\ResourceNotFoundException(code: 0):  at /home/ubuntu/workspace/app/cache/prod/appProdUrlMatcher.php:45)"} []
[2016-03-11 12:10:41] request.ERROR: Uncaught PHP Exception Symfony\Component\HttpKernel\Exception\NotFoundHttpException: "No route found for "GET /bundles/acmedemo/css/ionic.css" (from "https://projectem07uf3-sergi111.c9users.io/web/app_dev.php/selectAllGrups")" at /home/ubuntu/workspace/app/cache/prod/classes.php line 2599 {"exception":"[object] (Symfony\\Component\\HttpKernel\\Exception\\NotFoundHttpException(code: 0): No route found for \"GET /bundles/acmedemo/css/ionic.css\" (from \"https://projectem07uf3-sergi111.c9users.io/web/app_dev.php/selectAllGrups\") at /home/ubuntu/workspace/app/cache/prod/classes.php:2599, Symfony\\Component\\Routing\\Exception\\ResourceNotFoundException(code: 0):  at /home/ubuntu/workspace/app/cache/prod/appProdUrlMatcher.php:45)"} []
[2016-03-11 12:10:41] request.ERROR: Uncaught PHP Exception Symfony\Component\HttpKernel\Exception\NotFoundHttpException: "No route found for "GET /bundles/acmedemo/css/img/denim.png" (from "https://projectem07uf3-sergi111.c9users.io/web/bundles/acmedemo/css/theme.css")" at /home/ubuntu/workspace/app/cache/prod/classes.php line 2599 {"exception":"[object] (Symfony\\Component\\HttpKernel\\Exception\\NotFoundHttpException(code: 0): No route found for \"GET /bundles/acmedemo/css/img/denim.png\" (from \"https://projectem07uf3-sergi111.c9users.io/web/bundles/acmedemo/css/theme.css\") at /home/ubuntu/workspace/app/cache/prod/classes.php:2599, Symfony\\Component\\Routing\\Exception\\ResourceNotFoundException(code: 0):  at /home/ubuntu/workspace/app/cache/prod/appProdUrlMatcher.php:45)"} []
[2016-03-11 12:10:58] request.ERROR: Uncaught PHP Exception Symfony\Component\HttpKernel\Exception\NotFoundHttpException: "No route found for "GET /bundles/acmedemo/css/ionic.css" (from "https://projectem07uf3-sergi111.c9users.io/web/app_dev.php/selectAllGrups")" at /home/ubuntu/workspace/app/cache/prod/classes.php line 2599 {"exception":"[object] (Symfony\\Component\\HttpKernel\\Exception\\NotFoundHttpException(code: 0): No route found for \"GET /bundles/acmedemo/css/ionic.css\" (from \"https://projectem07uf3-sergi111.c9users.io/web/app_dev.php/selectAllGrups\") at /home/ubuntu/workspace/app/cache/prod/classes.php:2599, Symfony\\Component\\Routing\\Exception\\ResourceNotFoundException(code: 0):  at /home/ubuntu/workspace/app/cache/prod/appProdUrlMatcher.php:45)"} []
[2016-03-11 12:10:58] request.ERROR: Uncaught PHP Exception Symfony\Component\HttpKernel\Exception\NotFoundHttpException: "No route found for "GET /bundles/acmedemo/css/img/denim.png" (from "https://projectem07uf3-sergi111.c9users.io/web/bundles/acmedemo/css/theme.css")" at /home/ubuntu/workspace/app/cache/prod/classes.php line 2599 {"exception":"[object] (Symfony\\Component\\HttpKernel\\Exception\\NotFoundHttpException(code: 0): No route found for \"GET /bundles/acmedemo/css/img/denim.png\" (from \"https://projectem07uf3-sergi111.c9users.io/web/bundles/acmedemo/css/theme.css\") at /home/ubuntu/workspace/app/cache/prod/classes.php:2599, Symfony\\Component\\Routing\\Exception\\ResourceNotFoundException(code: 0):  at /home/ubuntu/workspace/app/cache/prod/appProdUrlMatcher.php:45)"} []
[2016-03-11 13:04:00] request.ERROR: Uncaught PHP Exception Symfony\Component\HttpKernel\Exception\NotFoundHttpException: "No route found for "GET /bundles/acmedemo/css/%7B%7B%20asset(%27bundles/acmedemo/images/eather_icons/blizzard.giffondo.jpg%27)%20%7D%7D" (from "https://projectem07uf3-sergi111.c9users.io/web/bundles/acmedemo/css/theme.css")" at /home/ubuntu/workspace/app/cache/prod/classes.php line 2599 {"exception":"[object] (Symfony\\Component\\HttpKernel\\Exception\\NotFoundHttpException(code: 0): No route found for \"GET /bundles/acmedemo/css/%7B%7B%20asset(%27bundles/acmedemo/images/eather_icons/blizzard.giffondo.jpg%27)%20%7D%7D\" (from \"https://projectem07uf3-sergi111.c9users.io/web/bundles/acmedemo/css/theme.css\") at /home/ubuntu/workspace/app/cache/prod/classes.php:2599, Symfony\\Component\\Routing\\Exception\\ResourceNotFoundException(code: 0):  at /home/ubuntu/workspace/app/cache/prod/appProdUrlMatcher.php:45)"} []
[2016-03-11 13:04:56] request.ERROR: Uncaught PHP Exception Symfony\Component\HttpKernel\Exception\NotFoundHttpException: "No route found for "GET /bundles/acmedemo/css/%7B%7B%20asset(%27bundles/acmedemo/images/eather_icons/blizzard.giffondo.jpg%27)%20%7D%7D" (from "https://projectem07uf3-sergi111.c9users.io/web/bundles/acmedemo/css/theme.css")" at /home/ubuntu/workspace/app/cache/prod/classes.php line 2599 {"exception":"[object] (Symfony\\Component\\HttpKernel\\Exception\\NotFoundHttpException(code: 0): No route found for \"GET /bundles/acmedemo/css/%7B%7B%20asset(%27bundles/acmedemo/images/eather_icons/blizzard.giffondo.jpg%27)%20%7D%7D\" (from \"https://projectem07uf3-sergi111.c9users.io/web/bundles/acmedemo/css/theme.css\") at /home/ubuntu/workspace/app/cache/prod/classes.php:2599, Symfony\\Component\\Routing\\Exception\\ResourceNotFoundException(code: 0):  at /home/ubuntu/workspace/app/cache/prod/appProdUrlMatcher.php:45)"} []
[2016-03-11 13:06:41] request.ERROR: Uncaught PHP Exception Symfony\Component\HttpKernel\Exception\NotFoundHttpException: "No route found for "GET /bundles/images/fondo.jpg" (from "https://projectem07uf3-sergi111.c9users.io/web/bundles/acmedemo/css/theme.css")" at /home/ubuntu/workspace/app/cache/prod/classes.php line 2599 {"exception":"[object] (Symfony\\Component\\HttpKernel\\Exception\\NotFoundHttpException(code: 0): No route found for \"GET /bundles/images/fondo.jpg\" (from \"https://projectem07uf3-sergi111.c9users.io/web/bundles/acmedemo/css/theme.css\") at /home/ubuntu/workspace/app/cache/prod/classes.php:2599, Symfony\\Component\\Routing\\Exception\\ResourceNotFoundException(code: 0):  at /home/ubuntu/workspace/app/cache/prod/appProdUrlMatcher.php:45)"} []
[2016-03-11 13:08:58] request.ERROR: Uncaught PHP Exception Symfony\Component\HttpKernel\Exception\NotFoundHttpException: "No route found for "GET /bundles/acmedemo/css/app/Resources/views/css/acmedemo/images/fondo.jpg" (from "https://projectem07uf3-sergi111.c9users.io/web/bundles/acmedemo/css/theme.css")" at /home/ubuntu/workspace/app/cache/prod/classes.php line 2599 {"exception":"[object] (Symfony\\Component\\HttpKernel\\Exception\\NotFoundHttpException(code: 0): No route found for \"GET /bundles/acmedemo/css/app/Resources/views/css/acmedemo/images/fondo.jpg\" (from \"https://projectem07uf3-sergi111.c9users.io/web/bundles/acmedemo/css/theme.css\") at /home/ubuntu/workspace/app/cache/prod/classes.php:2599, Symfony\\Component\\Routing\\Exception\\ResourceNotFoundException(code: 0):  at /home/ubuntu/workspace/app/cache/prod/appProdUrlMatcher.php:45)"} []
[2016-03-14 07:42:03] request.ERROR: Uncaught PHP Exception Symfony\Component\HttpKernel\Exception\NotFoundHttpException: "No route found for "GET /bundles/acmedemo/css/app/Resources/views/css/acmedemo/images/fondo.jpg" (from "https://projectem07uf3-sergi111.c9users.io/web/bundles/acmedemo/css/theme.css")" at /home/ubuntu/workspace/app/cache/prod/classes.php line 2599 {"exception":"[object] (Symfony\\Component\\HttpKernel\\Exception\\NotFoundHttpException(code: 0): No route found for \"GET /bundles/acmedemo/css/app/Resources/views/css/acmedemo/images/fondo.jpg\" (from \"https://projectem07uf3-sergi111.c9users.io/web/bundles/acmedemo/css/theme.css\") at /home/ubuntu/workspace/app/cache/prod/classes.php:2599, Symfony\\Component\\Routing\\Exception\\ResourceNotFoundException(code: 0):  at /home/ubuntu/workspace/app/cache/prod/appProdUrlMatcher.php:45)"} []
[2016-03-15 11:26:11] request.ERROR: Uncaught PHP Exception Symfony\Component\HttpKernel\Exception\NotFoundHttpException: "No route found for "GET /bundles/acmedemo/css/app/Resources/views/css/acmedemo/images/fondo.jpg" (from "https://projectem07uf3-sergi111.c9users.io/web/bundles/acmedemo/css/theme.css")" at /home/ubuntu/workspace/app/cache/prod/classes.php line 2599 {"exception":"[object] (Symfony\\Component\\HttpKernel\\Exception\\NotFoundHttpException(code: 0): No route found for \"GET /bundles/acmedemo/css/app/Resources/views/css/acmedemo/images/fondo.jpg\" (from \"https://projectem07uf3-sergi111.c9users.io/web/bundles/acmedemo/css/theme.css\") at /home/ubuntu/workspace/app/cache/prod/classes.php:2599, Symfony\\Component\\Routing\\Exception\\ResourceNotFoundException(code: 0):  at /home/ubuntu/workspace/app/cache/prod/appProdUrlMatcher.php:45)"} []
[2016-03-15 12:04:45] request.ERROR: Uncaught PHP Exception Symfony\Component\HttpKernel\Exception\NotFoundHttpException: "No route found for "GET /bundles/acmedemo/css/app/Resources/views/css/acmedemo/images/fondo.jpg" (from "https://projectem07uf3-sergi111.c9users.io/web/bundles/acmedemo/css/theme.css")" at /home/ubuntu/workspace/app/cache/prod/classes.php line 2599 {"exception":"[object] (Symfony\\Component\\HttpKernel\\Exception\\NotFoundHttpException(code: 0): No route found for \"GET /bundles/acmedemo/css/app/Resources/views/css/acmedemo/images/fondo.jpg\" (from \"https://projectem07uf3-sergi111.c9users.io/web/bundles/acmedemo/css/theme.css\") at /home/ubuntu/workspace/app/cache/prod/classes.php:2599, Symfony\\Component\\Routing\\Exception\\ResourceNotFoundException(code: 0):  at /home/ubuntu/workspace/app/cache/prod/appProdUrlMatcher.php:45)"} []
[2016-03-15 12:06:39] request.ERROR: Uncaught PHP Exception Symfony\Component\HttpKernel\Exception\NotFoundHttpException: "No route found for "GET /bundles/acmedemo/css/app/Resources/views/css/acmedemo/images/fondo.jpg" (from "https://projectem07uf3-sergi111.c9users.io/web/bundles/acmedemo/css/theme.css")" at /home/ubuntu/workspace/app/cache/prod/classes.php line 2599 {"exception":"[object] (Symfony\\Component\\HttpKernel\\Exception\\NotFoundHttpException(code: 0): No route found for \"GET /bundles/acmedemo/css/app/Resources/views/css/acmedemo/images/fondo.jpg\" (from \"https://projectem07uf3-sergi111.c9users.io/web/bundles/acmedemo/css/theme.css\") at /home/ubuntu/workspace/app/cache/prod/classes.php:2599, Symfony\\Component\\Routing\\Exception\\ResourceNotFoundException(code: 0):  at /home/ubuntu/workspace/app/cache/prod/appProdUrlMatcher.php:45)"} []
[2016-03-15 12:07:11] request.ERROR: Uncaught PHP Exception Symfony\Component\HttpKernel\Exception\NotFoundHttpException: "No route found for "GET /bundles/acmedemo/css/app/Resources/views/css/acmedemo/images/fondo.jpg" (from "https://projectem07uf3-sergi111.c9users.io/web/bundles/acmedemo/css/theme.css")" at /home/ubuntu/workspace/app/cache/prod/classes.php line 2599 {"exception":"[object] (Symfony\\Component\\HttpKernel\\Exception\\NotFoundHttpException(code: 0): No route found for \"GET /bundles/acmedemo/css/app/Resources/views/css/acmedemo/images/fondo.jpg\" (from \"https://projectem07uf3-sergi111.c9users.io/web/bundles/acmedemo/css/theme.css\") at /home/ubuntu/workspace/app/cache/prod/classes.php:2599, Symfony\\Component\\Routing\\Exception\\ResourceNotFoundException(code: 0):  at /home/ubuntu/workspace/app/cache/prod/appProdUrlMatcher.php:45)"} []
[2016-03-15 12:07:30] request.ERROR: Uncaught PHP Exception Symfony\Component\HttpKernel\Exception\NotFoundHttpException: "No route found for "GET /bundles/acmedemo/css/app/Resources/views/css/acmedemo/images/fondo.jpg" (from "https://projectem07uf3-sergi111.c9users.io/web/bundles/acmedemo/css/theme.css")" at /home/ubuntu/workspace/app/cache/prod/classes.php line 2599 {"exception":"[object] (Symfony\\Component\\HttpKernel\\Exception\\NotFoundHttpException(code: 0): No route found for \"GET /bundles/acmedemo/css/app/Resources/views/css/acmedemo/images/fondo.jpg\" (from \"https://projectem07uf3-sergi111.c9users.io/web/bundles/acmedemo/css/theme.css\") at /home/ubuntu/workspace/app/cache/prod/classes.php:2599, Symfony\\Component\\Routing\\Exception\\ResourceNotFoundException(code: 0):  at /home/ubuntu/workspace/app/cache/prod/appProdUrlMatcher.php:45)"} []
[2016-03-15 12:07:49] request.ERROR: Uncaught PHP Exception Symfony\Component\HttpKernel\Exception\NotFoundHttpException: "No route found for "GET /bundles/acmedemo/css/app/Resources/views/css/acmedemo/images/fondo.jpg" (from "https://projectem07uf3-sergi111.c9users.io/web/bundles/acmedemo/css/theme.css")" at /home/ubuntu/workspace/app/cache/prod/classes.php line 2599 {"exception":"[object] (Symfony\\Component\\HttpKernel\\Exception\\NotFoundHttpException(code: 0): No route found for \"GET /bundles/acmedemo/css/app/Resources/views/css/acmedemo/images/fondo.jpg\" (from \"https://projectem07uf3-sergi111.c9users.io/web/bundles/acmedemo/css/theme.css\") at /home/ubuntu/workspace/app/cache/prod/classes.php:2599, Symfony\\Component\\Routing\\Exception\\ResourceNotFoundException(code: 0):  at /home/ubuntu/workspace/app/cache/prod/appProdUrlMatcher.php:45)"} []
[2016-03-15 12:08:00] request.ERROR: Uncaught PHP Exception Symfony\Component\HttpKernel\Exception\NotFoundHttpException: "No route found for "GET /bundles/acmedemo/css/app/Resources/views/css/acmedemo/images/fondo.jpg" (from "https://projectem07uf3-sergi111.c9users.io/web/bundles/acmedemo/css/theme.css")" at /home/ubuntu/workspace/app/cache/prod/classes.php line 2599 {"exception":"[object] (Symfony\\Component\\HttpKernel\\Exception\\NotFoundHttpException(code: 0): No route found for \"GET /bundles/acmedemo/css/app/Resources/views/css/acmedemo/images/fondo.jpg\" (from \"https://projectem07uf3-sergi111.c9users.io/web/bundles/acmedemo/css/theme.css\") at /home/ubuntu/workspace/app/cache/prod/classes.php:2599, Symfony\\Component\\Routing\\Exception\\ResourceNotFoundException(code: 0):  at /home/ubuntu/workspace/app/cache/prod/appProdUrlMatcher.php:45)"} []
[2016-03-15 12:08:16] request.ERROR: Uncaught PHP Exception Symfony\Component\HttpKernel\Exception\NotFoundHttpException: "No route found for "GET /bundles/acmedemo/css/app/Resources/views/css/acmedemo/images/fondo.jpg" (from "https://projectem07uf3-sergi111.c9users.io/web/bundles/acmedemo/css/theme.css")" at /home/ubuntu/workspace/app/cache/prod/classes.php line 2599 {"exception":"[object] (Symfony\\Component\\HttpKernel\\Exception\\NotFoundHttpException(code: 0): No route found for \"GET /bundles/acmedemo/css/app/Resources/views/css/acmedemo/images/fondo.jpg\" (from \"https://projectem07uf3-sergi111.c9users.io/web/bundles/acmedemo/css/theme.css\") at /home/ubuntu/workspace/app/cache/prod/classes.php:2599, Symfony\\Component\\Routing\\Exception\\ResourceNotFoundException(code: 0):  at /home/ubuntu/workspace/app/cache/prod/appProdUrlMatcher.php:45)"} []
[2016-03-15 12:08:33] request.ERROR: Uncaught PHP Exception Symfony\Component\HttpKernel\Exception\NotFoundHttpException: "No route found for "GET /bundles/acmedemo/css/app/Resources/views/css/acmedemo/images/fondo.jpg" (from "https://projectem07uf3-sergi111.c9users.io/web/bundles/acmedemo/css/theme.css")" at /home/ubuntu/workspace/app/cache/prod/classes.php line 2599 {"exception":"[object] (Symfony\\Component\\HttpKernel\\Exception\\NotFoundHttpException(code: 0): No route found for \"GET /bundles/acmedemo/css/app/Resources/views/css/acmedemo/images/fondo.jpg\" (from \"https://projectem07uf3-sergi111.c9users.io/web/bundles/acmedemo/css/theme.css\") at /home/ubuntu/workspace/app/cache/prod/classes.php:2599, Symfony\\Component\\Routing\\Exception\\ResourceNotFoundException(code: 0):  at /home/ubuntu/workspace/app/cache/prod/appProdUrlMatcher.php:45)"} []
[2016-03-15 12:09:06] request.ERROR: Uncaught PHP Exception Symfony\Component\HttpKernel\Exception\NotFoundHttpException: "No route found for "GET /bundles/acmedemo/css/app/Resources/views/css/acmedemo/images/fondo.jpg" (from "https://projectem07uf3-sergi111.c9users.io/web/bundles/acmedemo/css/theme.css")" at /home/ubuntu/workspace/app/cache/prod/classes.php line 2599 {"exception":"[object] (Symfony\\Component\\HttpKernel\\Exception\\NotFoundHttpException(code: 0): No route found for \"GET /bundles/acmedemo/css/app/Resources/views/css/acmedemo/images/fondo.jpg\" (from \"https://projectem07uf3-sergi111.c9users.io/web/bundles/acmedemo/css/theme.css\") at /home/ubuntu/workspace/app/cache/prod/classes.php:2599, Symfony\\Component\\Routing\\Exception\\ResourceNotFoundException(code: 0):  at /home/ubuntu/workspace/app/cache/prod/appProdUrlMatcher.php:45)"} []
[2016-03-15 12:09:20] request.ERROR: Uncaught PHP Exception Symfony\Component\HttpKernel\Exception\NotFoundHttpException: "No route found for "GET /bundles/acmedemo/css/app/Resources/views/css/acmedemo/images/fondo.jpg" (from "https://projectem07uf3-sergi111.c9users.io/web/bundles/acmedemo/css/theme.css")" at /home/ubuntu/workspace/app/cache/prod/classes.php line 2599 {"exception":"[object] (Symfony\\Component\\HttpKernel\\Exception\\NotFoundHttpException(code: 0): No route found for \"GET /bundles/acmedemo/css/app/Resources/views/css/acmedemo/images/fondo.jpg\" (from \"https://projectem07uf3-sergi111.c9users.io/web/bundles/acmedemo/css/theme.css\") at /home/ubuntu/workspace/app/cache/prod/classes.php:2599, Symfony\\Component\\Routing\\Exception\\ResourceNotFoundException(code: 0):  at /home/ubuntu/workspace/app/cache/prod/appProdUrlMatcher.php:45)"} []
[2016-03-15 12:09:39] request.ERROR: Uncaught PHP Exception Symfony\Component\HttpKernel\Exception\NotFoundHttpException: "No route found for "GET /bundles/acmedemo/css/app/Resources/views/css/acmedemo/images/fondo.jpg" (from "https://projectem07uf3-sergi111.c9users.io/web/bundles/acmedemo/css/theme.css")" at /home/ubuntu/workspace/app/cache/prod/classes.php line 2599 {"exception":"[object] (Symfony\\Component\\HttpKernel\\Exception\\NotFoundHttpException(code: 0): No route found for \"GET /bundles/acmedemo/css/app/Resources/views/css/acmedemo/images/fondo.jpg\" (from \"https://projectem07uf3-sergi111.c9users.io/web/bundles/acmedemo/css/theme.css\") at /home/ubuntu/workspace/app/cache/prod/classes.php:2599, Symfony\\Component\\Routing\\Exception\\ResourceNotFoundException(code: 0):  at /home/ubuntu/workspace/app/cache/prod/appProdUrlMatcher.php:45)"} []
[2016-03-15 12:11:02] request.ERROR: Uncaught PHP Exception Symfony\Component\HttpKernel\Exception\NotFoundHttpException: "No route found for "GET /bundles/acmedemo/css/app/Resources/views/css/acmedemo/images/fondo.jpg" (from "https://projectem07uf3-sergi111.c9users.io/web/bundles/acmedemo/css/theme.css")" at /home/ubuntu/workspace/app/cache/prod/classes.php line 2599 {"exception":"[object] (Symfony\\Component\\HttpKernel\\Exception\\NotFoundHttpException(code: 0): No route found for \"GET /bundles/acmedemo/css/app/Resources/views/css/acmedemo/images/fondo.jpg\" (from \"https://projectem07uf3-sergi111.c9users.io/web/bundles/acmedemo/css/theme.css\") at /home/ubuntu/workspace/app/cache/prod/classes.php:2599, Symfony\\Component\\Routing\\Exception\\ResourceNotFoundException(code: 0):  at /home/ubuntu/workspace/app/cache/prod/appProdUrlMatcher.php:45)"} []
[2016-03-15 12:11:20] request.ERROR: Uncaught PHP Exception Symfony\Component\HttpKernel\Exception\NotFoundHttpException: "No route found for "GET /bundles/acmedemo/css/app/Resources/views/css/acmedemo/images/fondo.jpg" (from "https://projectem07uf3-sergi111.c9users.io/web/bundles/acmedemo/css/theme.css")" at /home/ubuntu/workspace/app/cache/prod/classes.php line 2599 {"exception":"[object] (Symfony\\Component\\HttpKernel\\Exception\\NotFoundHttpException(code: 0): No route found for \"GET /bundles/acmedemo/css/app/Resources/views/css/acmedemo/images/fondo.jpg\" (from \"https://projectem07uf3-sergi111.c9users.io/web/bundles/acmedemo/css/theme.css\") at /home/ubuntu/workspace/app/cache/prod/classes.php:2599, Symfony\\Component\\Routing\\Exception\\ResourceNotFoundException(code: 0):  at /home/ubuntu/workspace/app/cache/prod/appProdUrlMatcher.php:45)"} []
[2016-03-15 12:11:45] request.ERROR: Uncaught PHP Exception Symfony\Component\HttpKernel\Exception\NotFoundHttpException: "No route found for "GET /bundles/acmedemo/css/app/Resources/views/css/acmedemo/images/fondo.jpg" (from "https://projectem07uf3-sergi111.c9users.io/web/bundles/acmedemo/css/theme.css")" at /home/ubuntu/workspace/app/cache/prod/classes.php line 2599 {"exception":"[object] (Symfony\\Component\\HttpKernel\\Exception\\NotFoundHttpException(code: 0): No route found for \"GET /bundles/acmedemo/css/app/Resources/views/css/acmedemo/images/fondo.jpg\" (from \"https://projectem07uf3-sergi111.c9users.io/web/bundles/acmedemo/css/theme.css\") at /home/ubuntu/workspace/app/cache/prod/classes.php:2599, Symfony\\Component\\Routing\\Exception\\ResourceNotFoundException(code: 0):  at /home/ubuntu/workspace/app/cache/prod/appProdUrlMatcher.php:45)"} []
[2016-03-15 12:12:05] request.ERROR: Uncaught PHP Exception Symfony\Component\HttpKernel\Exception\NotFoundHttpException: "No route found for "GET /bundles/acmedemo/css/app/Resources/views/css/acmedemo/images/fondo.jpg" (from "https://projectem07uf3-sergi111.c9users.io/web/bundles/acmedemo/css/theme.css")" at /home/ubuntu/workspace/app/cache/prod/classes.php line 2599 {"exception":"[object] (Symfony\\Component\\HttpKernel\\Exception\\NotFoundHttpException(code: 0): No route found for \"GET /bundles/acmedemo/css/app/Resources/views/css/acmedemo/images/fondo.jpg\" (from \"https://projectem07uf3-sergi111.c9users.io/web/bundles/acmedemo/css/theme.css\") at /home/ubuntu/workspace/app/cache/prod/classes.php:2599, Symfony\\Component\\Routing\\Exception\\ResourceNotFoundException(code: 0):  at /home/ubuntu/workspace/app/cache/prod/appProdUrlMatcher.php:45)"} []
[2016-03-15 12:12:35] request.ERROR: Uncaught PHP Exception Symfony\Component\HttpKernel\Exception\NotFoundHttpException: "No route found for "GET /bundles/acmedemo/css/app/Resources/views/css/acmedemo/images/fondo.jpg" (from "https://projectem07uf3-sergi111.c9users.io/web/bundles/acmedemo/css/theme.css")" at /home/ubuntu/workspace/app/cache/prod/classes.php line 2599 {"exception":"[object] (Symfony\\Component\\HttpKernel\\Exception\\NotFoundHttpException(code: 0): No route found for \"GET /bundles/acmedemo/css/app/Resources/views/css/acmedemo/images/fondo.jpg\" (from \"https://projectem07uf3-sergi111.c9users.io/web/bundles/acmedemo/css/theme.css\") at /home/ubuntu/workspace/app/cache/prod/classes.php:2599, Symfony\\Component\\Routing\\Exception\\ResourceNotFoundException(code: 0):  at /home/ubuntu/workspace/app/cache/prod/appProdUrlMatcher.php:45)"} []
[2016-03-15 12:13:16] request.ERROR: Uncaught PHP Exception Symfony\Component\HttpKernel\Exception\NotFoundHttpException: "No route found for "GET /bundles/acmedemo/css/app/Resources/views/css/acmedemo/images/fondo.jpg" (from "https://projectem07uf3-sergi111.c9users.io/web/bundles/acmedemo/css/theme.css")" at /home/ubuntu/workspace/app/cache/prod/classes.php line 2599 {"exception":"[object] (Symfony\\Component\\HttpKernel\\Exception\\NotFoundHttpException(code: 0): No route found for \"GET /bundles/acmedemo/css/app/Resources/views/css/acmedemo/images/fondo.jpg\" (from \"https://projectem07uf3-sergi111.c9users.io/web/bundles/acmedemo/css/theme.css\") at /home/ubuntu/workspace/app/cache/prod/classes.php:2599, Symfony\\Component\\Routing\\Exception\\ResourceNotFoundException(code: 0):  at /home/ubuntu/workspace/app/cache/prod/appProdUrlMatcher.php:45)"} []
[2016-03-15 12:13:30] request.ERROR: Uncaught PHP Exception Symfony\Component\HttpKernel\Exception\NotFoundHttpException: "No route found for "GET /bundles/acmedemo/css/app/Resources/views/css/acmedemo/images/fondo.jpg" (from "https://projectem07uf3-sergi111.c9users.io/web/bundles/acmedemo/css/theme.css")" at /home/ubuntu/workspace/app/cache/prod/classes.php line 2599 {"exception":"[object] (Symfony\\Component\\HttpKernel\\Exception\\NotFoundHttpException(code: 0): No route found for \"GET /bundles/acmedemo/css/app/Resources/views/css/acmedemo/images/fondo.jpg\" (from \"https://projectem07uf3-sergi111.c9users.io/web/bundles/acmedemo/css/theme.css\") at /home/ubuntu/workspace/app/cache/prod/classes.php:2599, Symfony\\Component\\Routing\\Exception\\ResourceNotFoundException(code: 0):  at /home/ubuntu/workspace/app/cache/prod/appProdUrlMatcher.php:45)"} []
[2016-03-15 12:14:05] request.ERROR: Uncaught PHP Exception Symfony\Component\HttpKernel\Exception\NotFoundHttpException: "No route found for "GET /bundles/acmedemo/css/app/Resources/views/css/acmedemo/images/fondo.jpg" (from "https://projectem07uf3-sergi111.c9users.io/web/bundles/acmedemo/css/theme.css")" at /home/ubuntu/workspace/app/cache/prod/classes.php line 2599 {"exception":"[object] (Symfony\\Component\\HttpKernel\\Exception\\NotFoundHttpException(code: 0): No route found for \"GET /bundles/acmedemo/css/app/Resources/views/css/acmedemo/images/fondo.jpg\" (from \"https://projectem07uf3-sergi111.c9users.io/web/bundles/acmedemo/css/theme.css\") at /home/ubuntu/workspace/app/cache/prod/classes.php:2599, Symfony\\Component\\Routing\\Exception\\ResourceNotFoundException(code: 0):  at /home/ubuntu/workspace/app/cache/prod/appProdUrlMatcher.php:45)"} []
[2016-03-15 12:14:52] request.ERROR: Uncaught PHP Exception Symfony\Component\HttpKernel\Exception\NotFoundHttpException: "No route found for "GET /bundles/acmedemo/css/app/Resources/views/css/acmedemo/images/fondo.jpg" (from "https://projectem07uf3-sergi111.c9users.io/web/bundles/acmedemo/css/theme.css")" at /home/ubuntu/workspace/app/cache/prod/classes.php line 2599 {"exception":"[object] (Symfony\\Component\\HttpKernel\\Exception\\NotFoundHttpException(code: 0): No route found for \"GET /bundles/acmedemo/css/app/Resources/views/css/acmedemo/images/fondo.jpg\" (from \"https://projectem07uf3-sergi111.c9users.io/web/bundles/acmedemo/css/theme.css\") at /home/ubuntu/workspace/app/cache/prod/classes.php:2599, Symfony\\Component\\Routing\\Exception\\ResourceNotFoundException(code: 0):  at /home/ubuntu/workspace/app/cache/prod/appProdUrlMatcher.php:45)"} []
[2016-03-15 12:15:23] request.ERROR: Uncaught PHP Exception Symfony\Component\HttpKernel\Exception\NotFoundHttpException: "No route found for "GET /bundles/acmedemo/css/app/Resources/views/css/acmedemo/images/fondo.jpg" (from "https://projectem07uf3-sergi111.c9users.io/web/bundles/acmedemo/css/theme.css")" at /home/ubuntu/workspace/app/cache/prod/classes.php line 2599 {"exception":"[object] (Symfony\\Component\\HttpKernel\\Exception\\NotFoundHttpException(code: 0): No route found for \"GET /bundles/acmedemo/css/app/Resources/views/css/acmedemo/images/fondo.jpg\" (from \"https://projectem07uf3-sergi111.c9users.io/web/bundles/acmedemo/css/theme.css\") at /home/ubuntu/workspace/app/cache/prod/classes.php:2599, Symfony\\Component\\Routing\\Exception\\ResourceNotFoundException(code: 0):  at /home/ubuntu/workspace/app/cache/prod/appProdUrlMatcher.php:45)"} []
[2016-03-15 12:16:11] request.ERROR: Uncaught PHP Exception Symfony\Component\HttpKernel\Exception\NotFoundHttpException: "No route found for "GET /bundles/acmedemo/css/app/Resources/views/css/acmedemo/images/fondo.jpg" (from "https://projectem07uf3-sergi111.c9users.io/web/bundles/acmedemo/css/theme.css")" at /home/ubuntu/workspace/app/cache/prod/classes.php line 2599 {"exception":"[object] (Symfony\\Component\\HttpKernel\\Exception\\NotFoundHttpException(code: 0): No route found for \"GET /bundles/acmedemo/css/app/Resources/views/css/acmedemo/images/fondo.jpg\" (from \"https://projectem07uf3-sergi111.c9users.io/web/bundles/acmedemo/css/theme.css\") at /home/ubuntu/workspace/app/cache/prod/classes.php:2599, Symfony\\Component\\Routing\\Exception\\ResourceNotFoundException(code: 0):  at /home/ubuntu/workspace/app/cache/prod/appProdUrlMatcher.php:45)"} []
[2016-03-15 12:16:56] request.ERROR: Uncaught PHP Exception Symfony\Component\HttpKernel\Exception\NotFoundHttpException: "No route found for "GET /bundles/acmedemo/css/app/Resources/views/css/acmedemo/images/fondo.jpg" (from "https://projectem07uf3-sergi111.c9users.io/web/bundles/acmedemo/css/theme.css")" at /home/ubuntu/workspace/app/cache/prod/classes.php line 2599 {"exception":"[object] (Symfony\\Component\\HttpKernel\\Exception\\NotFoundHttpException(code: 0): No route found for \"GET /bundles/acmedemo/css/app/Resources/views/css/acmedemo/images/fondo.jpg\" (from \"https://projectem07uf3-sergi111.c9users.io/web/bundles/acmedemo/css/theme.css\") at /home/ubuntu/workspace/app/cache/prod/classes.php:2599, Symfony\\Component\\Routing\\Exception\\ResourceNotFoundException(code: 0):  at /home/ubuntu/workspace/app/cache/prod/appProdUrlMatcher.php:45)"} []
[2016-03-15 12:17:21] request.ERROR: Uncaught PHP Exception Symfony\Component\HttpKernel\Exception\NotFoundHttpException: "No route found for "GET /bundles/acmedemo/css/app/Resources/views/css/acmedemo/images/fondo.jpg" (from "https://projectem07uf3-sergi111.c9users.io/web/bundles/acmedemo/css/theme.css")" at /home/ubuntu/workspace/app/cache/prod/classes.php line 2599 {"exception":"[object] (Symfony\\Component\\HttpKernel\\Exception\\NotFoundHttpException(code: 0): No route found for \"GET /bundles/acmedemo/css/app/Resources/views/css/acmedemo/images/fondo.jpg\" (from \"https://projectem07uf3-sergi111.c9users.io/web/bundles/acmedemo/css/theme.css\") at /home/ubuntu/workspace/app/cache/prod/classes.php:2599, Symfony\\Component\\Routing\\Exception\\ResourceNotFoundException(code: 0):  at /home/ubuntu/workspace/app/cache/prod/appProdUrlMatcher.php:45)"} []
[2016-03-15 12:17:40] request.ERROR: Uncaught PHP Exception Symfony\Component\HttpKernel\Exception\NotFoundHttpException: "No route found for "GET /bundles/acmedemo/css/app/Resources/views/css/acmedemo/images/fondo.jpg" (from "https://projectem07uf3-sergi111.c9users.io/web/bundles/acmedemo/css/theme.css")" at /home/ubuntu/workspace/app/cache/prod/classes.php line 2599 {"exception":"[object] (Symfony\\Component\\HttpKernel\\Exception\\NotFoundHttpException(code: 0): No route found for \"GET /bundles/acmedemo/css/app/Resources/views/css/acmedemo/images/fondo.jpg\" (from \"https://projectem07uf3-sergi111.c9users.io/web/bundles/acmedemo/css/theme.css\") at /home/ubuntu/workspace/app/cache/prod/classes.php:2599, Symfony\\Component\\Routing\\Exception\\ResourceNotFoundException(code: 0):  at /home/ubuntu/workspace/app/cache/prod/appProdUrlMatcher.php:45)"} []
[2016-03-15 12:18:01] request.ERROR: Uncaught PHP Exception Symfony\Component\HttpKernel\Exception\NotFoundHttpException: "No route found for "GET /bundles/acmedemo/css/app/Resources/views/css/acmedemo/images/fondo.jpg" (from "https://projectem07uf3-sergi111.c9users.io/web/bundles/acmedemo/css/theme.css")" at /home/ubuntu/workspace/app/cache/prod/classes.php line 2599 {"exception":"[object] (Symfony\\Component\\HttpKernel\\Exception\\NotFoundHttpException(code: 0): No route found for \"GET /bundles/acmedemo/css/app/Resources/views/css/acmedemo/images/fondo.jpg\" (from \"https://projectem07uf3-sergi111.c9users.io/web/bundles/acmedemo/css/theme.css\") at /home/ubuntu/workspace/app/cache/prod/classes.php:2599, Symfony\\Component\\Routing\\Exception\\ResourceNotFoundException(code: 0):  at /home/ubuntu/workspace/app/cache/prod/appProdUrlMatcher.php:45)"} []
[2016-03-15 12:18:27] request.ERROR: Uncaught PHP Exception Symfony\Component\HttpKernel\Exception\NotFoundHttpException: "No route found for "GET /bundles/acmedemo/css/app/Resources/views/css/acmedemo/images/fondo.jpg" (from "https://projectem07uf3-sergi111.c9users.io/web/bundles/acmedemo/css/theme.css")" at /home/ubuntu/workspace/app/cache/prod/classes.php line 2599 {"exception":"[object] (Symfony\\Component\\HttpKernel\\Exception\\NotFoundHttpException(code: 0): No route found for \"GET /bundles/acmedemo/css/app/Resources/views/css/acmedemo/images/fondo.jpg\" (from \"https://projectem07uf3-sergi111.c9users.io/web/bundles/acmedemo/css/theme.css\") at /home/ubuntu/workspace/app/cache/prod/classes.php:2599, Symfony\\Component\\Routing\\Exception\\ResourceNotFoundException(code: 0):  at /home/ubuntu/workspace/app/cache/prod/appProdUrlMatcher.php:45)"} []
[2016-03-15 12:18:41] request.ERROR: Uncaught PHP Exception Symfony\Component\HttpKernel\Exception\NotFoundHttpException: "No route found for "GET /bundles/acmedemo/css/app/Resources/views/css/acmedemo/images/fondo.jpg" (from "https://projectem07uf3-sergi111.c9users.io/web/bundles/acmedemo/css/theme.css")" at /home/ubuntu/workspace/app/cache/prod/classes.php line 2599 {"exception":"[object] (Symfony\\Component\\HttpKernel\\Exception\\NotFoundHttpException(code: 0): No route found for \"GET /bundles/acmedemo/css/app/Resources/views/css/acmedemo/images/fondo.jpg\" (from \"https://projectem07uf3-sergi111.c9users.io/web/bundles/acmedemo/css/theme.css\") at /home/ubuntu/workspace/app/cache/prod/classes.php:2599, Symfony\\Component\\Routing\\Exception\\ResourceNotFoundException(code: 0):  at /home/ubuntu/workspace/app/cache/prod/appProdUrlMatcher.php:45)"} []
[2016-03-15 12:19:30] request.ERROR: Uncaught PHP Exception Symfony\Component\HttpKernel\Exception\NotFoundHttpException: "No route found for "GET /bundles/acmedemo/css/app/Resources/views/css/acmedemo/images/fondo.jpg" (from "https://projectem07uf3-sergi111.c9users.io/web/bundles/acmedemo/css/theme.css")" at /home/ubuntu/workspace/app/cache/prod/classes.php line 2599 {"exception":"[object] (Symfony\\Component\\HttpKernel\\Exception\\NotFoundHttpException(code: 0): No route found for \"GET /bundles/acmedemo/css/app/Resources/views/css/acmedemo/images/fondo.jpg\" (from \"https://projectem07uf3-sergi111.c9users.io/web/bundles/acmedemo/css/theme.css\") at /home/ubuntu/workspace/app/cache/prod/classes.php:2599, Symfony\\Component\\Routing\\Exception\\ResourceNotFoundException(code: 0):  at /home/ubuntu/workspace/app/cache/prod/appProdUrlMatcher.php:45)"} []
[2016-03-15 12:19:52] request.ERROR: Uncaught PHP Exception Symfony\Component\HttpKernel\Exception\NotFoundHttpException: "No route found for "GET /bundles/acmedemo/css/app/Resources/views/css/acmedemo/images/fondo.jpg" (from "https://projectem07uf3-sergi111.c9users.io/web/bundles/acmedemo/css/theme.css")" at /home/ubuntu/workspace/app/cache/prod/classes.php line 2599 {"exception":"[object] (Symfony\\Component\\HttpKernel\\Exception\\NotFoundHttpException(code: 0): No route found for \"GET /bundles/acmedemo/css/app/Resources/views/css/acmedemo/images/fondo.jpg\" (from \"https://projectem07uf3-sergi111.c9users.io/web/bundles/acmedemo/css/theme.css\") at /home/ubuntu/workspace/app/cache/prod/classes.php:2599, Symfony\\Component\\Routing\\Exception\\ResourceNotFoundException(code: 0):  at /home/ubuntu/workspace/app/cache/prod/appProdUrlMatcher.php:45)"} []
[2016-03-15 12:21:05] request.ERROR: Uncaught PHP Exception Symfony\Component\HttpKernel\Exception\NotFoundHttpException: "No route found for "GET /bundles/acmedemo/css/app/Resources/views/css/acmedemo/images/fondo.jpg" (from "https://projectem07uf3-sergi111.c9users.io/web/bundles/acmedemo/css/theme.css")" at /home/ubuntu/workspace/app/cache/prod/classes.php line 2599 {"exception":"[object] (Symfony\\Component\\HttpKernel\\Exception\\NotFoundHttpException(code: 0): No route found for \"GET /bundles/acmedemo/css/app/Resources/views/css/acmedemo/images/fondo.jpg\" (from \"https://projectem07uf3-sergi111.c9users.io/web/bundles/acmedemo/css/theme.css\") at /home/ubuntu/workspace/app/cache/prod/classes.php:2599, Symfony\\Component\\Routing\\Exception\\ResourceNotFoundException(code: 0):  at /home/ubuntu/workspace/app/cache/prod/appProdUrlMatcher.php:45)"} []
[2016-03-15 12:21:48] request.ERROR: Uncaught PHP Exception Symfony\Component\HttpKernel\Exception\NotFoundHttpException: "No route found for "GET /bundles/acmedemo/css/app/Resources/views/css/acmedemo/images/fondo.jpg" (from "https://projectem07uf3-sergi111.c9users.io/web/bundles/acmedemo/css/theme.css")" at /home/ubuntu/workspace/app/cache/prod/classes.php line 2599 {"exception":"[object] (Symfony\\Component\\HttpKernel\\Exception\\NotFoundHttpException(code: 0): No route found for \"GET /bundles/acmedemo/css/app/Resources/views/css/acmedemo/images/fondo.jpg\" (from \"https://projectem07uf3-sergi111.c9users.io/web/bundles/acmedemo/css/theme.css\") at /home/ubuntu/workspace/app/cache/prod/classes.php:2599, Symfony\\Component\\Routing\\Exception\\ResourceNotFoundException(code: 0):  at /home/ubuntu/workspace/app/cache/prod/appProdUrlMatcher.php:45)"} []
[2016-03-15 12:22:05] request.ERROR: Uncaught PHP Exception Symfony\Component\HttpKernel\Exception\NotFoundHttpException: "No route found for "GET /bundles/acmedemo/css/app/Resources/views/css/acmedemo/images/fondo.jpg" (from "https://projectem07uf3-sergi111.c9users.io/web/bundles/acmedemo/css/theme.css")" at /home/ubuntu/workspace/app/cache/prod/classes.php line 2599 {"exception":"[object] (Symfony\\Component\\HttpKernel\\Exception\\NotFoundHttpException(code: 0): No route found for \"GET /bundles/acmedemo/css/app/Resources/views/css/acmedemo/images/fondo.jpg\" (from \"https://projectem07uf3-sergi111.c9users.io/web/bundles/acmedemo/css/theme.css\") at /home/ubuntu/workspace/app/cache/prod/classes.php:2599, Symfony\\Component\\Routing\\Exception\\ResourceNotFoundException(code: 0):  at /home/ubuntu/workspace/app/cache/prod/appProdUrlMatcher.php:45)"} []
[2016-03-15 12:22:21] request.ERROR: Uncaught PHP Exception Symfony\Component\HttpKernel\Exception\NotFoundHttpException: "No route found for "GET /bundles/acmedemo/css/app/Resources/views/css/acmedemo/images/fondo.jpg" (from "https://projectem07uf3-sergi111.c9users.io/web/bundles/acmedemo/css/theme.css")" at /home/ubuntu/workspace/app/cache/prod/classes.php line 2599 {"exception":"[object] (Symfony\\Component\\HttpKernel\\Exception\\NotFoundHttpException(code: 0): No route found for \"GET /bundles/acmedemo/css/app/Resources/views/css/acmedemo/images/fondo.jpg\" (from \"https://projectem07uf3-sergi111.c9users.io/web/bundles/acmedemo/css/theme.css\") at /home/ubuntu/workspace/app/cache/prod/classes.php:2599, Symfony\\Component\\Routing\\Exception\\ResourceNotFoundException(code: 0):  at /home/ubuntu/workspace/app/cache/prod/appProdUrlMatcher.php:45)"} []
[2016-03-15 12:22:36] request.ERROR: Uncaught PHP Exception Symfony\Component\HttpKernel\Exception\NotFoundHttpException: "No route found for "GET /bundles/acmedemo/css/app/Resources/views/css/acmedemo/images/fondo.jpg" (from "https://projectem07uf3-sergi111.c9users.io/web/bundles/acmedemo/css/theme.css")" at /home/ubuntu/workspace/app/cache/prod/classes.php line 2599 {"exception":"[object] (Symfony\\Component\\HttpKernel\\Exception\\NotFoundHttpException(code: 0): No route found for \"GET /bundles/acmedemo/css/app/Resources/views/css/acmedemo/images/fondo.jpg\" (from \"https://projectem07uf3-sergi111.c9users.io/web/bundles/acmedemo/css/theme.css\") at /home/ubuntu/workspace/app/cache/prod/classes.php:2599, Symfony\\Component\\Routing\\Exception\\ResourceNotFoundException(code: 0):  at /home/ubuntu/workspace/app/cache/prod/appProdUrlMatcher.php:45)"} []
[2016-03-15 12:26:44] request.ERROR: Uncaught PHP Exception Symfony\Component\HttpKernel\Exception\NotFoundHttpException: "No route found for "GET /bundles/acmedemo/css/app/Resources/views/css/acmedemo/images/fondo.jpg" (from "https://projectem07uf3-sergi111.c9users.io/web/bundles/acmedemo/css/theme.css")" at /home/ubuntu/workspace/app/cache/prod/classes.php line 2599 {"exception":"[object] (Symfony\\Component\\HttpKernel\\Exception\\NotFoundHttpException(code: 0): No route found for \"GET /bundles/acmedemo/css/app/Resources/views/css/acmedemo/images/fondo.jpg\" (from \"https://projectem07uf3-sergi111.c9users.io/web/bundles/acmedemo/css/theme.css\") at /home/ubuntu/workspace/app/cache/prod/classes.php:2599, Symfony\\Component\\Routing\\Exception\\ResourceNotFoundException(code: 0):  at /home/ubuntu/workspace/app/cache/prod/appProdUrlMatcher.php:45)"} []
[2016-03-15 12:26:44] request.ERROR: Uncaught PHP Exception Symfony\Component\HttpKernel\Exception\NotFoundHttpException: "No route found for "GET /bundles/acmedemo/css/app/Resources/views/bundles/css/images/titol.png" (from "https://projectem07uf3-sergi111.c9users.io/web/bundles/acmedemo/css/theme.css")" at /home/ubuntu/workspace/app/cache/prod/classes.php line 2599 {"exception":"[object] (Symfony\\Component\\HttpKernel\\Exception\\NotFoundHttpException(code: 0): No route found for \"GET /bundles/acmedemo/css/app/Resources/views/bundles/css/images/titol.png\" (from \"https://projectem07uf3-sergi111.c9users.io/web/bundles/acmedemo/css/theme.css\") at /home/ubuntu/workspace/app/cache/prod/classes.php:2599, Symfony\\Component\\Routing\\Exception\\ResourceNotFoundException(code: 0):  at /home/ubuntu/workspace/app/cache/prod/appProdUrlMatcher.php:45)"} []
[2016-03-15 12:27:44] request.ERROR: Uncaught PHP Exception Symfony\Component\HttpKernel\Exception\NotFoundHttpException: "No route found for "GET /bundles/acmedemo/css/app/Resources/views/css/acmedemo/images/fondo.jpg" (from "https://projectem07uf3-sergi111.c9users.io/web/bundles/acmedemo/css/theme.css")" at /home/ubuntu/workspace/app/cache/prod/classes.php line 2599 {"exception":"[object] (Symfony\\Component\\HttpKernel\\Exception\\NotFoundHttpException(code: 0): No route found for \"GET /bundles/acmedemo/css/app/Resources/views/css/acmedemo/images/fondo.jpg\" (from \"https://projectem07uf3-sergi111.c9users.io/web/bundles/acmedemo/css/theme.css\") at /home/ubuntu/workspace/app/cache/prod/classes.php:2599, Symfony\\Component\\Routing\\Exception\\ResourceNotFoundException(code: 0):  at /home/ubuntu/workspace/app/cache/prod/appProdUrlMatcher.php:45)"} []
[2016-03-15 12:27:44] request.ERROR: Uncaught PHP Exception Symfony\Component\HttpKernel\Exception\NotFoundHttpException: "No route found for "GET /bundles/acmedemo/css/app/Resources/views/bundles/css/images/titol.png" (from "https://projectem07uf3-sergi111.c9users.io/web/bundles/acmedemo/css/theme.css")" at /home/ubuntu/workspace/app/cache/prod/classes.php line 2599 {"exception":"[object] (Symfony\\Component\\HttpKernel\\Exception\\NotFoundHttpException(code: 0): No route found for \"GET /bundles/acmedemo/css/app/Resources/views/bundles/css/images/titol.png\" (from \"https://projectem07uf3-sergi111.c9users.io/web/bundles/acmedemo/css/theme.css\") at /home/ubuntu/workspace/app/cache/prod/classes.php:2599, Symfony\\Component\\Routing\\Exception\\ResourceNotFoundException(code: 0):  at /home/ubuntu/workspace/app/cache/prod/appProdUrlMatcher.php:45)"} []
[2016-03-15 12:28:00] request.ERROR: Uncaught PHP Exception Symfony\Component\HttpKernel\Exception\NotFoundHttpException: "No route found for "GET /bundles/acmedemo/css/app/Resources/views/css/acmedemo/images/fondo.jpg" (from "https://projectem07uf3-sergi111.c9users.io/web/bundles/acmedemo/css/theme.css")" at /home/ubuntu/workspace/app/cache/prod/classes.php line 2599 {"exception":"[object] (Symfony\\Component\\HttpKernel\\Exception\\NotFoundHttpException(code: 0): No route found for \"GET /bundles/acmedemo/css/app/Resources/views/css/acmedemo/images/fondo.jpg\" (from \"https://projectem07uf3-sergi111.c9users.io/web/bundles/acmedemo/css/theme.css\") at /home/ubuntu/workspace/app/cache/prod/classes.php:2599, Symfony\\Component\\Routing\\Exception\\ResourceNotFoundException(code: 0):  at /home/ubuntu/workspace/app/cache/prod/appProdUrlMatcher.php:45)"} []
[2016-03-15 12:28:00] request.ERROR: Uncaught PHP Exception Symfony\Component\HttpKernel\Exception\NotFoundHttpException: "No route found for "GET /bundles/acmedemo/css/app/Resources/views/bundles/css/images/titol.png" (from "https://projectem07uf3-sergi111.c9users.io/web/bundles/acmedemo/css/theme.css")" at /home/ubuntu/workspace/app/cache/prod/classes.php line 2599 {"exception":"[object] (Symfony\\Component\\HttpKernel\\Exception\\NotFoundHttpException(code: 0): No route found for \"GET /bundles/acmedemo/css/app/Resources/views/bundles/css/images/titol.png\" (from \"https://projectem07uf3-sergi111.c9users.io/web/bundles/acmedemo/css/theme.css\") at /home/ubuntu/workspace/app/cache/prod/classes.php:2599, Symfony\\Component\\Routing\\Exception\\ResourceNotFoundException(code: 0):  at /home/ubuntu/workspace/app/cache/prod/appProdUrlMatcher.php:45)"} []
[2016-03-15 12:28:17] request.ERROR: Uncaught PHP Exception Symfony\Component\HttpKernel\Exception\NotFoundHttpException: "No route found for "GET /bundles/acmedemo/css/app/Resources/views/bundles/css/images/titol.png" (from "https://projectem07uf3-sergi111.c9users.io/web/bundles/acmedemo/css/theme.css")" at /home/ubuntu/workspace/app/cache/prod/classes.php line 2599 {"exception":"[object] (Symfony\\Component\\HttpKernel\\Exception\\NotFoundHttpException(code: 0): No route found for \"GET /bundles/acmedemo/css/app/Resources/views/bundles/css/images/titol.png\" (from \"https://projectem07uf3-sergi111.c9users.io/web/bundles/acmedemo/css/theme.css\") at /home/ubuntu/workspace/app/cache/prod/classes.php:2599, Symfony\\Component\\Routing\\Exception\\ResourceNotFoundException(code: 0):  at /home/ubuntu/workspace/app/cache/prod/appProdUrlMatcher.php:45)"} []
[2016-03-15 12:28:17] request.ERROR: Uncaught PHP Exception Symfony\Component\HttpKernel\Exception\NotFoundHttpException: "No route found for "GET /bundles/acmedemo/css/app/Resources/views/css/acmedemo/images/fondo.jpg" (from "https://projectem07uf3-sergi111.c9users.io/web/bundles/acmedemo/css/theme.css")" at /home/ubuntu/workspace/app/cache/prod/classes.php line 2599 {"exception":"[object] (Symfony\\Component\\HttpKernel\\Exception\\NotFoundHttpException(code: 0): No route found for \"GET /bundles/acmedemo/css/app/Resources/views/css/acmedemo/images/fondo.jpg\" (from \"https://projectem07uf3-sergi111.c9users.io/web/bundles/acmedemo/css/theme.css\") at /home/ubuntu/workspace/app/cache/prod/classes.php:2599, Symfony\\Component\\Routing\\Exception\\ResourceNotFoundException(code: 0):  at /home/ubuntu/workspace/app/cache/prod/appProdUrlMatcher.php:45)"} []
[2016-03-15 12:28:31] request.ERROR: Uncaught PHP Exception Symfony\Component\HttpKernel\Exception\NotFoundHttpException: "No route found for "GET /bundles/acmedemo/css/app/Resources/views/bundles/css/images/titol.png" (from "https://projectem07uf3-sergi111.c9users.io/web/bundles/acmedemo/css/theme.css")" at /home/ubuntu/workspace/app/cache/prod/classes.php line 2599 {"exception":"[object] (Symfony\\Component\\HttpKernel\\Exception\\NotFoundHttpException(code: 0): No route found for \"GET /bundles/acmedemo/css/app/Resources/views/bundles/css/images/titol.png\" (from \"https://projectem07uf3-sergi111.c9users.io/web/bundles/acmedemo/css/theme.css\") at /home/ubuntu/workspace/app/cache/prod/classes.php:2599, Symfony\\Component\\Routing\\Exception\\ResourceNotFoundException(code: 0):  at /home/ubuntu/workspace/app/cache/prod/appProdUrlMatcher.php:45)"} []
[2016-03-15 12:28:31] request.ERROR: Uncaught PHP Exception Symfony\Component\HttpKernel\Exception\NotFoundHttpException: "No route found for "GET /bundles/acmedemo/css/app/Resources/views/css/acmedemo/images/fondo.jpg" (from "https://projectem07uf3-sergi111.c9users.io/web/bundles/acmedemo/css/theme.css")" at /home/ubuntu/workspace/app/cache/prod/classes.php line 2599 {"exception":"[object] (Symfony\\Component\\HttpKernel\\Exception\\NotFoundHttpException(code: 0): No route found for \"GET /bundles/acmedemo/css/app/Resources/views/css/acmedemo/images/fondo.jpg\" (from \"https://projectem07uf3-sergi111.c9users.io/web/bundles/acmedemo/css/theme.css\") at /home/ubuntu/workspace/app/cache/prod/classes.php:2599, Symfony\\Component\\Routing\\Exception\\ResourceNotFoundException(code: 0):  at /home/ubuntu/workspace/app/cache/prod/appProdUrlMatcher.php:45)"} []
[2016-03-15 12:28:42] request.ERROR: Uncaught PHP Exception Symfony\Component\HttpKernel\Exception\NotFoundHttpException: "No route found for "GET /bundles/acmedemo/css/app/Resources/views/css/acmedemo/images/fondo.jpg" (from "https://projectem07uf3-sergi111.c9users.io/web/bundles/acmedemo/css/theme.css")" at /home/ubuntu/workspace/app/cache/prod/classes.php line 2599 {"exception":"[object] (Symfony\\Component\\HttpKernel\\Exception\\NotFoundHttpException(code: 0): No route found for \"GET /bundles/acmedemo/css/app/Resources/views/css/acmedemo/images/fondo.jpg\" (from \"https://projectem07uf3-sergi111.c9users.io/web/bundles/acmedemo/css/theme.css\") at /home/ubuntu/workspace/app/cache/prod/classes.php:2599, Symfony\\Component\\Routing\\Exception\\ResourceNotFoundException(code: 0):  at /home/ubuntu/workspace/app/cache/prod/appProdUrlMatcher.php:45)"} []
[2016-03-15 12:29:33] request.ERROR: Uncaught PHP Exception Symfony\Component\HttpKernel\Exception\NotFoundHttpException: "No route found for "GET /bundles/acmedemo/css/app/Resources/views/css/acmedemo/images/fondo.jpg" (from "https://projectem07uf3-sergi111.c9users.io/web/bundles/acmedemo/css/theme.css")" at /home/ubuntu/workspace/app/cache/prod/classes.php line 2599 {"exception":"[object] (Symfony\\Component\\HttpKernel\\Exception\\NotFoundHttpException(code: 0): No route found for \"GET /bundles/acmedemo/css/app/Resources/views/css/acmedemo/images/fondo.jpg\" (from \"https://projectem07uf3-sergi111.c9users.io/web/bundles/acmedemo/css/theme.css\") at /home/ubuntu/workspace/app/cache/prod/classes.php:2599, Symfony\\Component\\Routing\\Exception\\ResourceNotFoundException(code: 0):  at /home/ubuntu/workspace/app/cache/prod/appProdUrlMatcher.php:45)"} []
[2016-03-15 12:30:12] request.ERROR: Uncaught PHP Exception Symfony\Component\HttpKernel\Exception\NotFoundHttpException: "No route found for "GET /bundles/acmedemo/css/app/Resources/views/css/acmedemo/images/fondo.jpg" (from "https://projectem07uf3-sergi111.c9users.io/web/bundles/acmedemo/css/theme.css")" at /home/ubuntu/workspace/app/cache/prod/classes.php line 2599 {"exception":"[object] (Symfony\\Component\\HttpKernel\\Exception\\NotFoundHttpException(code: 0): No route found for \"GET /bundles/acmedemo/css/app/Resources/views/css/acmedemo/images/fondo.jpg\" (from \"https://projectem07uf3-sergi111.c9users.io/web/bundles/acmedemo/css/theme.css\") at /home/ubuntu/workspace/app/cache/prod/classes.php:2599, Symfony\\Component\\Routing\\Exception\\ResourceNotFoundException(code: 0):  at /home/ubuntu/workspace/app/cache/prod/appProdUrlMatcher.php:45)"} []
[2016-03-15 12:30:40] request.ERROR: Uncaught PHP Exception Symfony\Component\HttpKernel\Exception\NotFoundHttpException: "No route found for "GET /bundles/acmedemo/css/app/Resources/views/css/acmedemo/images/fondo.jpg" (from "https://projectem07uf3-sergi111.c9users.io/web/bundles/acmedemo/css/theme.css")" at /home/ubuntu/workspace/app/cache/prod/classes.php line 2599 {"exception":"[object] (Symfony\\Component\\HttpKernel\\Exception\\NotFoundHttpException(code: 0): No route found for \"GET /bundles/acmedemo/css/app/Resources/views/css/acmedemo/images/fondo.jpg\" (from \"https://projectem07uf3-sergi111.c9users.io/web/bundles/acmedemo/css/theme.css\") at /home/ubuntu/workspace/app/cache/prod/classes.php:2599, Symfony\\Component\\Routing\\Exception\\ResourceNotFoundException(code: 0):  at /home/ubuntu/workspace/app/cache/prod/appProdUrlMatcher.php:45)"} []
[2016-03-15 12:32:00] request.ERROR: Uncaught PHP Exception Symfony\Component\HttpKernel\Exception\NotFoundHttpException: "No route found for "GET /bundles/acmedemo/css/app/Resources/views/css/acmedemo/images/fondo.jpg" (from "https://projectem07uf3-sergi111.c9users.io/web/bundles/acmedemo/css/theme.css")" at /home/ubuntu/workspace/app/cache/prod/classes.php line 2599 {"exception":"[object] (Symfony\\Component\\HttpKernel\\Exception\\NotFoundHttpException(code: 0): No route found for \"GET /bundles/acmedemo/css/app/Resources/views/css/acmedemo/images/fondo.jpg\" (from \"https://projectem07uf3-sergi111.c9users.io/web/bundles/acmedemo/css/theme.css\") at /home/ubuntu/workspace/app/cache/prod/classes.php:2599, Symfony\\Component\\Routing\\Exception\\ResourceNotFoundException(code: 0):  at /home/ubuntu/workspace/app/cache/prod/appProdUrlMatcher.php:45)"} []
[2016-03-15 12:33:18] request.ERROR: Uncaught PHP Exception Symfony\Component\HttpKernel\Exception\NotFoundHttpException: "No route found for "GET /bundles/acmedemo/css/app/Resources/views/css/acmedemo/images/fondo.jpg" (from "https://projectem07uf3-sergi111.c9users.io/web/bundles/acmedemo/css/theme.css")" at /home/ubuntu/workspace/app/cache/prod/classes.php line 2599 {"exception":"[object] (Symfony\\Component\\HttpKernel\\Exception\\NotFoundHttpException(code: 0): No route found for \"GET /bundles/acmedemo/css/app/Resources/views/css/acmedemo/images/fondo.jpg\" (from \"https://projectem07uf3-sergi111.c9users.io/web/bundles/acmedemo/css/theme.css\") at /home/ubuntu/workspace/app/cache/prod/classes.php:2599, Symfony\\Component\\Routing\\Exception\\ResourceNotFoundException(code: 0):  at /home/ubuntu/workspace/app/cache/prod/appProdUrlMatcher.php:45)"} []
[2016-03-15 12:33:49] request.ERROR: Uncaught PHP Exception Symfony\Component\HttpKernel\Exception\NotFoundHttpException: "No route found for "GET /bundles/acmedemo/css/app/Resources/views/css/acmedemo/images/fondo.jpg" (from "https://projectem07uf3-sergi111.c9users.io/web/bundles/acmedemo/css/theme.css")" at /home/ubuntu/workspace/app/cache/prod/classes.php line 2599 {"exception":"[object] (Symfony\\Component\\HttpKernel\\Exception\\NotFoundHttpException(code: 0): No route found for \"GET /bundles/acmedemo/css/app/Resources/views/css/acmedemo/images/fondo.jpg\" (from \"https://projectem07uf3-sergi111.c9users.io/web/bundles/acmedemo/css/theme.css\") at /home/ubuntu/workspace/app/cache/prod/classes.php:2599, Symfony\\Component\\Routing\\Exception\\ResourceNotFoundException(code: 0):  at /home/ubuntu/workspace/app/cache/prod/appProdUrlMatcher.php:45)"} []
[2016-03-15 12:34:05] request.ERROR: Uncaught PHP Exception Symfony\Component\HttpKernel\Exception\NotFoundHttpException: "No route found for "GET /bundles/acmedemo/css/app/Resources/views/css/acmedemo/images/fondo.jpg" (from "https://projectem07uf3-sergi111.c9users.io/web/bundles/acmedemo/css/theme.css")" at /home/ubuntu/workspace/app/cache/prod/classes.php line 2599 {"exception":"[object] (Symfony\\Component\\HttpKernel\\Exception\\NotFoundHttpException(code: 0): No route found for \"GET /bundles/acmedemo/css/app/Resources/views/css/acmedemo/images/fondo.jpg\" (from \"https://projectem07uf3-sergi111.c9users.io/web/bundles/acmedemo/css/theme.css\") at /home/ubuntu/workspace/app/cache/prod/classes.php:2599, Symfony\\Component\\Routing\\Exception\\ResourceNotFoundException(code: 0):  at /home/ubuntu/workspace/app/cache/prod/appProdUrlMatcher.php:45)"} []
[2016-03-15 12:34:25] request.ERROR: Uncaught PHP Exception Symfony\Component\HttpKernel\Exception\NotFoundHttpException: "No route found for "GET /bundles/acmedemo/css/app/Resources/views/css/acmedemo/images/fondo.jpg" (from "https://projectem07uf3-sergi111.c9users.io/web/bundles/acmedemo/css/theme.css")" at /home/ubuntu/workspace/app/cache/prod/classes.php line 2599 {"exception":"[object] (Symfony\\Component\\HttpKernel\\Exception\\NotFoundHttpException(code: 0): No route found for \"GET /bundles/acmedemo/css/app/Resources/views/css/acmedemo/images/fondo.jpg\" (from \"https://projectem07uf3-sergi111.c9users.io/web/bundles/acmedemo/css/theme.css\") at /home/ubuntu/workspace/app/cache/prod/classes.php:2599, Symfony\\Component\\Routing\\Exception\\ResourceNotFoundException(code: 0):  at /home/ubuntu/workspace/app/cache/prod/appProdUrlMatcher.php:45)"} []
[2016-03-15 12:35:10] request.ERROR: Uncaught PHP Exception Symfony\Component\HttpKernel\Exception\NotFoundHttpException: "No route found for "GET /bundles/acmedemo/css/app/Resources/views/css/acmedemo/images/fondo.jpg" (from "https://projectem07uf3-sergi111.c9users.io/web/bundles/acmedemo/css/theme.css")" at /home/ubuntu/workspace/app/cache/prod/classes.php line 2599 {"exception":"[object] (Symfony\\Component\\HttpKernel\\Exception\\NotFoundHttpException(code: 0): No route found for \"GET /bundles/acmedemo/css/app/Resources/views/css/acmedemo/images/fondo.jpg\" (from \"https://projectem07uf3-sergi111.c9users.io/web/bundles/acmedemo/css/theme.css\") at /home/ubuntu/workspace/app/cache/prod/classes.php:2599, Symfony\\Component\\Routing\\Exception\\ResourceNotFoundException(code: 0):  at /home/ubuntu/workspace/app/cache/prod/appProdUrlMatcher.php:45)"} []
[2016-03-15 12:35:41] request.ERROR: Uncaught PHP Exception Symfony\Component\HttpKernel\Exception\NotFoundHttpException: "No route found for "GET /bundles/acmedemo/css/app/Resources/views/css/acmedemo/images/fondo.jpg" (from "https://projectem07uf3-sergi111.c9users.io/web/bundles/acmedemo/css/theme.css")" at /home/ubuntu/workspace/app/cache/prod/classes.php line 2599 {"exception":"[object] (Symfony\\Component\\HttpKernel\\Exception\\NotFoundHttpException(code: 0): No route found for \"GET /bundles/acmedemo/css/app/Resources/views/css/acmedemo/images/fondo.jpg\" (from \"https://projectem07uf3-sergi111.c9users.io/web/bundles/acmedemo/css/theme.css\") at /home/ubuntu/workspace/app/cache/prod/classes.php:2599, Symfony\\Component\\Routing\\Exception\\ResourceNotFoundException(code: 0):  at /home/ubuntu/workspace/app/cache/prod/appProdUrlMatcher.php:45)"} []
[2016-03-15 12:35:56] request.ERROR: Uncaught PHP Exception Symfony\Component\HttpKernel\Exception\NotFoundHttpException: "No route found for "GET /bundles/acmedemo/css/app/Resources/views/css/acmedemo/images/fondo.jpg" (from "https://projectem07uf3-sergi111.c9users.io/web/bundles/acmedemo/css/theme.css")" at /home/ubuntu/workspace/app/cache/prod/classes.php line 2599 {"exception":"[object] (Symfony\\Component\\HttpKernel\\Exception\\NotFoundHttpException(code: 0): No route found for \"GET /bundles/acmedemo/css/app/Resources/views/css/acmedemo/images/fondo.jpg\" (from \"https://projectem07uf3-sergi111.c9users.io/web/bundles/acmedemo/css/theme.css\") at /home/ubuntu/workspace/app/cache/prod/classes.php:2599, Symfony\\Component\\Routing\\Exception\\ResourceNotFoundException(code: 0):  at /home/ubuntu/workspace/app/cache/prod/appProdUrlMatcher.php:45)"} []
[2016-03-15 12:36:40] request.ERROR: Uncaught PHP Exception Symfony\Component\HttpKernel\Exception\NotFoundHttpException: "No route found for "GET /bundles/acmedemo/css/app/Resources/views/css/acmedemo/images/fondo.jpg" (from "https://projectem07uf3-sergi111.c9users.io/web/bundles/acmedemo/css/theme.css")" at /home/ubuntu/workspace/app/cache/prod/classes.php line 2599 {"exception":"[object] (Symfony\\Component\\HttpKernel\\Exception\\NotFoundHttpException(code: 0): No route found for \"GET /bundles/acmedemo/css/app/Resources/views/css/acmedemo/images/fondo.jpg\" (from \"https://projectem07uf3-sergi111.c9users.io/web/bundles/acmedemo/css/theme.css\") at /home/ubuntu/workspace/app/cache/prod/classes.php:2599, Symfony\\Component\\Routing\\Exception\\ResourceNotFoundException(code: 0):  at /home/ubuntu/workspace/app/cache/prod/appProdUrlMatcher.php:45)"} []
[2016-03-15 12:36:59] request.ERROR: Uncaught PHP Exception Symfony\Component\HttpKernel\Exception\NotFoundHttpException: "No route found for "GET /bundles/acmedemo/css/app/Resources/views/css/acmedemo/images/fondo.jpg" (from "https://projectem07uf3-sergi111.c9users.io/web/bundles/acmedemo/css/theme.css")" at /home/ubuntu/workspace/app/cache/prod/classes.php line 2599 {"exception":"[object] (Symfony\\Component\\HttpKernel\\Exception\\NotFoundHttpException(code: 0): No route found for \"GET /bundles/acmedemo/css/app/Resources/views/css/acmedemo/images/fondo.jpg\" (from \"https://projectem07uf3-sergi111.c9users.io/web/bundles/acmedemo/css/theme.css\") at /home/ubuntu/workspace/app/cache/prod/classes.php:2599, Symfony\\Component\\Routing\\Exception\\ResourceNotFoundException(code: 0):  at /home/ubuntu/workspace/app/cache/prod/appProdUrlMatcher.php:45)"} []
[2016-03-15 12:37:51] request.ERROR: Uncaught PHP Exception Symfony\Component\HttpKernel\Exception\NotFoundHttpException: "No route found for "GET /bundles/acmedemo/css/app/Resources/views/css/acmedemo/images/fondo.jpg" (from "https://projectem07uf3-sergi111.c9users.io/web/bundles/acmedemo/css/theme.css")" at /home/ubuntu/workspace/app/cache/prod/classes.php line 2599 {"exception":"[object] (Symfony\\Component\\HttpKernel\\Exception\\NotFoundHttpException(code: 0): No route found for \"GET /bundles/acmedemo/css/app/Resources/views/css/acmedemo/images/fondo.jpg\" (from \"https://projectem07uf3-sergi111.c9users.io/web/bundles/acmedemo/css/theme.css\") at /home/ubuntu/workspace/app/cache/prod/classes.php:2599, Symfony\\Component\\Routing\\Exception\\ResourceNotFoundException(code: 0):  at /home/ubuntu/workspace/app/cache/prod/appProdUrlMatcher.php:45)"} []
[2016-03-15 12:38:27] request.ERROR: Uncaught PHP Exception Symfony\Component\HttpKernel\Exception\NotFoundHttpException: "No route found for "GET /bundles/acmedemo/css/app/Resources/views/css/acmedemo/images/fondo.jpg" (from "https://projectem07uf3-sergi111.c9users.io/web/bundles/acmedemo/css/theme.css")" at /home/ubuntu/workspace/app/cache/prod/classes.php line 2599 {"exception":"[object] (Symfony\\Component\\HttpKernel\\Exception\\NotFoundHttpException(code: 0): No route found for \"GET /bundles/acmedemo/css/app/Resources/views/css/acmedemo/images/fondo.jpg\" (from \"https://projectem07uf3-sergi111.c9users.io/web/bundles/acmedemo/css/theme.css\") at /home/ubuntu/workspace/app/cache/prod/classes.php:2599, Symfony\\Component\\Routing\\Exception\\ResourceNotFoundException(code: 0):  at /home/ubuntu/workspace/app/cache/prod/appProdUrlMatcher.php:45)"} []
[2016-03-15 12:38:57] request.ERROR: Uncaught PHP Exception Symfony\Component\HttpKernel\Exception\NotFoundHttpException: "No route found for "GET /bundles/acmedemo/css/app/Resources/views/css/acmedemo/images/fondo.jpg" (from "https://projectem07uf3-sergi111.c9users.io/web/bundles/acmedemo/css/theme.css")" at /home/ubuntu/workspace/app/cache/prod/classes.php line 2599 {"exception":"[object] (Symfony\\Component\\HttpKernel\\Exception\\NotFoundHttpException(code: 0): No route found for \"GET /bundles/acmedemo/css/app/Resources/views/css/acmedemo/images/fondo.jpg\" (from \"https://projectem07uf3-sergi111.c9users.io/web/bundles/acmedemo/css/theme.css\") at /home/ubuntu/workspace/app/cache/prod/classes.php:2599, Symfony\\Component\\Routing\\Exception\\ResourceNotFoundException(code: 0):  at /home/ubuntu/workspace/app/cache/prod/appProdUrlMatcher.php:45)"} []
[2016-03-15 12:39:18] request.ERROR: Uncaught PHP Exception Symfony\Component\HttpKernel\Exception\NotFoundHttpException: "No route found for "GET /bundles/acmedemo/css/app/Resources/views/css/acmedemo/images/fondo.jpg" (from "https://projectem07uf3-sergi111.c9users.io/web/bundles/acmedemo/css/theme.css")" at /home/ubuntu/workspace/app/cache/prod/classes.php line 2599 {"exception":"[object] (Symfony\\Component\\HttpKernel\\Exception\\NotFoundHttpException(code: 0): No route found for \"GET /bundles/acmedemo/css/app/Resources/views/css/acmedemo/images/fondo.jpg\" (from \"https://projectem07uf3-sergi111.c9users.io/web/bundles/acmedemo/css/theme.css\") at /home/ubuntu/workspace/app/cache/prod/classes.php:2599, Symfony\\Component\\Routing\\Exception\\ResourceNotFoundException(code: 0):  at /home/ubuntu/workspace/app/cache/prod/appProdUrlMatcher.php:45)"} []
[2016-03-15 12:39:35] request.ERROR: Uncaught PHP Exception Symfony\Component\HttpKernel\Exception\NotFoundHttpException: "No route found for "GET /bundles/acmedemo/css/app/Resources/views/css/acmedemo/images/fondo.jpg" (from "https://projectem07uf3-sergi111.c9users.io/web/bundles/acmedemo/css/theme.css")" at /home/ubuntu/workspace/app/cache/prod/classes.php line 2599 {"exception":"[object] (Symfony\\Component\\HttpKernel\\Exception\\NotFoundHttpException(code: 0): No route found for \"GET /bundles/acmedemo/css/app/Resources/views/css/acmedemo/images/fondo.jpg\" (from \"https://projectem07uf3-sergi111.c9users.io/web/bundles/acmedemo/css/theme.css\") at /home/ubuntu/workspace/app/cache/prod/classes.php:2599, Symfony\\Component\\Routing\\Exception\\ResourceNotFoundException(code: 0):  at /home/ubuntu/workspace/app/cache/prod/appProdUrlMatcher.php:45)"} []
[2016-03-15 12:40:05] request.ERROR: Uncaught PHP Exception Symfony\Component\HttpKernel\Exception\NotFoundHttpException: "No route found for "GET /bundles/acmedemo/css/app/Resources/views/css/acmedemo/images/fondo.jpg" (from "https://projectem07uf3-sergi111.c9users.io/web/bundles/acmedemo/css/theme.css")" at /home/ubuntu/workspace/app/cache/prod/classes.php line 2599 {"exception":"[object] (Symfony\\Component\\HttpKernel\\Exception\\NotFoundHttpException(code: 0): No route found for \"GET /bundles/acmedemo/css/app/Resources/views/css/acmedemo/images/fondo.jpg\" (from \"https://projectem07uf3-sergi111.c9users.io/web/bundles/acmedemo/css/theme.css\") at /home/ubuntu/workspace/app/cache/prod/classes.php:2599, Symfony\\Component\\Routing\\Exception\\ResourceNotFoundException(code: 0):  at /home/ubuntu/workspace/app/cache/prod/appProdUrlMatcher.php:45)"} []
[2016-03-15 12:41:02] request.ERROR: Uncaught PHP Exception Symfony\Component\HttpKernel\Exception\NotFoundHttpException: "No route found for "GET /bundles/acmedemo/css/app/Resources/views/css/acmedemo/images/fondo.jpg" (from "https://projectem07uf3-sergi111.c9users.io/web/bundles/acmedemo/css/theme.css")" at /home/ubuntu/workspace/app/cache/prod/classes.php line 2599 {"exception":"[object] (Symfony\\Component\\HttpKernel\\Exception\\NotFoundHttpException(code: 0): No route found for \"GET /bundles/acmedemo/css/app/Resources/views/css/acmedemo/images/fondo.jpg\" (from \"https://projectem07uf3-sergi111.c9users.io/web/bundles/acmedemo/css/theme.css\") at /home/ubuntu/workspace/app/cache/prod/classes.php:2599, Symfony\\Component\\Routing\\Exception\\ResourceNotFoundException(code: 0):  at /home/ubuntu/workspace/app/cache/prod/appProdUrlMatcher.php:45)"} []
[2016-03-15 12:41:52] request.ERROR: Uncaught PHP Exception Symfony\Component\HttpKernel\Exception\NotFoundHttpException: "No route found for "GET /bundles/acmedemo/css/app/Resources/views/css/acmedemo/images/fondo.jpg" (from "https://projectem07uf3-sergi111.c9users.io/web/bundles/acmedemo/css/theme.css")" at /home/ubuntu/workspace/app/cache/prod/classes.php line 2599 {"exception":"[object] (Symfony\\Component\\HttpKernel\\Exception\\NotFoundHttpException(code: 0): No route found for \"GET /bundles/acmedemo/css/app/Resources/views/css/acmedemo/images/fondo.jpg\" (from \"https://projectem07uf3-sergi111.c9users.io/web/bundles/acmedemo/css/theme.css\") at /home/ubuntu/workspace/app/cache/prod/classes.php:2599, Symfony\\Component\\Routing\\Exception\\ResourceNotFoundException(code: 0):  at /home/ubuntu/workspace/app/cache/prod/appProdUrlMatcher.php:45)"} []
[2016-03-15 12:42:34] request.ERROR: Uncaught PHP Exception Symfony\Component\HttpKernel\Exception\NotFoundHttpException: "No route found for "GET /bundles/acmedemo/css/app/Resources/views/css/acmedemo/images/fondo.jpg" (from "https://projectem07uf3-sergi111.c9users.io/web/bundles/acmedemo/css/theme.css")" at /home/ubuntu/workspace/app/cache/prod/classes.php line 2599 {"exception":"[object] (Symfony\\Component\\HttpKernel\\Exception\\NotFoundHttpException(code: 0): No route found for \"GET /bundles/acmedemo/css/app/Resources/views/css/acmedemo/images/fondo.jpg\" (from \"https://projectem07uf3-sergi111.c9users.io/web/bundles/acmedemo/css/theme.css\") at /home/ubuntu/workspace/app/cache/prod/classes.php:2599, Symfony\\Component\\Routing\\Exception\\ResourceNotFoundException(code: 0):  at /home/ubuntu/workspace/app/cache/prod/appProdUrlMatcher.php:45)"} []
